{
  "posts": [
    {
      "slug": "cloudflare-workers-limits-of-the-free-tier",
      "title": "Cloudflare Workers – Limits of the free tier",
      "description": "Cloudflare Workers highlights the free tier limits. Learn how to manage your usage effectively and avoid 429 errors. Stay informed today!",
      "date": "2022-01-04T21:11:23Z",
      "modified": "2026-03-10T20:35:15Z",
      "author": "James Kilby",
      "url": "https://jameskilby.co.uk/2022/01/cloudflare-workers-limits-of-the-free-tier/",
      "markdown_url": "/markdown/posts/cloudflare-workers-limits-of-the-free-tier.md",
      "api_url": "/api/posts/cloudflare-workers-limits-of-the-free-tier.json",
      "categories": [
        "Hosting",
        "Wordpress",
        "AWS",
        "Cloudflare",
        "Personal",
        "Docker",
        "Homelab",
        "Kubernetes"
      ],
      "tags": [
        null,
        null,
        null
      ],
      "image": "https://jameskilby.co.uk/wp-content/uploads/2022/10/iu.jpeg",
      "excerpt": "![Iu](https://jameskilby.co.uk/wp-content/uploads/2022/10/iu.jpeg)\n\n[Hosting](https://jameskilby.co.uk/category/hosting/) | [Wordpress](https://jameskilby.co.uk/category/wordpress/)\n\n# Cloudflare Workers – Limits of the free tier\n\nBy[James](https://jameskilby.co.uk)January 4, 2022March 10, 2026 • 📖1..."
    },
    {
      "slug": "can-you-really-squeeze-96tb-in-1u",
      "title": "Can you really squeeze 96TB in 1U ?",
      "description": "Learn how to achieve 96TB in a 1U server without redundancy. Uncover the potential of ultra-dense storage solutions today!",
      "date": "2024-09-12T12:39:16Z",
      "modified": "2026-03-10T20:35:12Z",
      "author": "James Kilby",
      "url": "https://jameskilby.co.uk/2024/09/can-you-really-squeeze-96tb-in-1u/",
      "markdown_url": "/markdown/posts/can-you-really-squeeze-96tb-in-1u.md",
      "api_url": "/api/posts/can-you-really-squeeze-96tb-in-1u.json",
      "categories": [
        "Homelab",
        "Storage",
        "TrueNAS Scale",
        "Artificial Intelligence",
        "Docker",
        "VMware",
        "Networking",
        "Ansible",
        "Hosting"
      ],
      "tags": [
        null,
        null
      ],
      "image": "https://jameskilby.co.uk/wp-content/uploads/2024/09/QuantaGrid-SD1Q-1ULH-Front-Three-Quarter.png",
      "excerpt": "![Quantagrid Sd1Q 1Ulh Front Three Quarter](https://jameskilby.co.uk/wp-content/uploads/2024/09/QuantaGrid-SD1Q-1ULH-Front-Three-Quarter.png)\n\n[Homelab](https://jameskilby.co.uk/category/homelab/) | [Storage](https://jameskilby.co.uk/category/storage/) | [TrueNAS Scale](https://jameskilby.co.uk/cate..."
    },
    {
      "slug": "aws-status-page-monitoring-included",
      "title": "AWS Status Page – Monitoring Included",
      "description": "Learn how to deploy LambStatus with AWS CloudWatch metrics to build a custom status page that tracks site response times using AWS Lambda functions.",
      "date": "2018-05-15T21:41:14Z",
      "modified": "2026-03-10T20:35:14Z",
      "author": "James Kilby",
      "url": "https://jameskilby.co.uk/2018/05/aws-status-page-monitoring-included/",
      "markdown_url": "/markdown/posts/aws-status-page-monitoring-included.md",
      "api_url": "/api/posts/aws-status-page-monitoring-included.json",
      "categories": [
        "AWS",
        "Hosting",
        "Cloudflare",
        "Wordpress",
        "Personal",
        "Artificial Intelligence",
        "Docker",
        "VMware",
        "VMware Cloud on AWS",
        "Veeam"
      ],
      "tags": [
        null,
        null
      ],
      "image": "https://jameskilby.co.uk/wp-content/uploads/2018/05/AmazonWebservices_Logo.svg_.png",
      "excerpt": "![Amazonwebservices Logo.Svg ](https://jameskilby.co.uk/wp-content/uploads/2018/05/AmazonWebservices_Logo.svg_.png)\n\n[AWS](https://jameskilby.co.uk/category/aws/) | [Hosting](https://jameskilby.co.uk/category/hosting/)\n\n# AWS Status Page – Monitoring Included\n\nBy[James](https://jameskilby.co.uk)May ..."
    },
    {
      "slug": "aws-solution-architect-associate",
      "title": "AWS Solution Architect – Associate",
      "description": "Renew your AWS Solution Architect certification today! Stay updated with the latest AWS services and enhance your skills for future challenges.",
      "date": "2019-12-16T23:46:22Z",
      "modified": "2026-03-10T20:35:16Z",
      "author": "James Kilby",
      "url": "https://jameskilby.co.uk/2019/12/aws-solution-architect-associate/",
      "markdown_url": "/markdown/posts/aws-solution-architect-associate.md",
      "api_url": "/api/posts/aws-solution-architect-associate.json",
      "categories": [
        "AWS",
        "Personal",
        "VMware",
        "VMware Cloud on AWS",
        "Devops",
        "Veeam",
        "Hosting"
      ],
      "tags": [
        null,
        null
      ],
      "image": "https://jameskilby.co.uk/wp-content/uploads/2018/05/AmazonWebservices_Logo.svg_.png",
      "excerpt": "![Amazonwebservices Logo.Svg ](https://jameskilby.co.uk/wp-content/uploads/2018/05/AmazonWebservices_Logo.svg_.png)\n\n[AWS](https://jameskilby.co.uk/category/aws/) | [Personal](https://jameskilby.co.uk/category/personal/)\n\n# AWS Solution Architect – Associate\n\nBy[James](https://jameskilby.co.uk)Decem..."
    },
    {
      "slug": "aws-for-beginners1",
      "title": "AWS For Beginners: IAM Setup, Root Security & Billing Alerts",
      "description": "A beginner's guide to AWS: root account security, IAM user setup, two-factor authentication, and billing alerts to avoid surprise bills.",
      "date": "2018-03-30T23:13:21Z",
      "modified": "2026-04-11T09:00:42Z",
      "author": "James Kilby",
      "url": "https://jameskilby.co.uk/2018/03/aws-for-beginners1/",
      "markdown_url": "/markdown/posts/aws-for-beginners1.md",
      "api_url": "/api/posts/aws-for-beginners1.json",
      "categories": [
        "AWS",
        "VMware",
        "VMware Cloud on AWS",
        "Hosting",
        "Veeam",
        "Personal"
      ],
      "tags": [
        null,
        null
      ],
      "image": "https://jameskilby.co.uk/wp-content/uploads/2018/03/raf750x1000075t101010_01c5ca27c6.u2.jpg",
      "excerpt": "![Raf750X1000075T101010 01C5Ca27C6.U2](https://jameskilby.co.uk/wp-content/uploads/2018/03/raf750x1000075t101010_01c5ca27c6.u2.jpg)\n\n[AWS](https://jameskilby.co.uk/category/aws/)\n\n# AWS For Beginners: IAM Setup, Root Security & Billing Alerts\n\nBy[James](https://jameskilby.co.uk)March 30, 2018April 1..."
    },
    {
      "slug": "automating-the-deployment-of-my-ai-homelab-and-other-improvements",
      "title": "Automating the deployment of my Homelab AI Infrastructure",
      "description": "In a previous post, I wrote about using my VMware lab with an NVIDIA Tesla P4 for running some AI services. This deployment was done with the P4 GPU in passt...",
      "date": "2026-02-09T11:54:54Z",
      "modified": "2026-03-15T17:08:18Z",
      "author": "James Kilby",
      "url": "https://jameskilby.co.uk/2026/02/automating-the-deployment-of-my-ai-homelab-and-other-improvements/",
      "markdown_url": "/markdown/posts/automating-the-deployment-of-my-ai-homelab-and-other-improvements.md",
      "api_url": "/api/posts/automating-the-deployment-of-my-ai-homelab-and-other-improvements.json",
      "categories": [
        "Ansible",
        "Artificial Intelligence",
        "Containers",
        "Devops",
        "Homelab",
        "NVIDIA",
        "Traefik",
        "VMware",
        "Docker",
        "Veeam",
        "Storage",
        "vExpert",
        "Mikrotik",
        "Networking",
        "VMware Cloud on AWS"
      ],
      "tags": [
        null,
        null,
        null,
        null,
        null
      ],
      "image": "https://jameskilby.co.uk/wp-content/uploads/2026/01/VMware-NVIDIA-logos_ee2f18dc-615d-4c9e-8f11-9c3c2ce2bf37-prv.png",
      "excerpt": "![Vmware Nvidia Logos Ee2F18Dc 615D 4C9E 8F11 9C3C2Ce2Bf37 Prv](https://jameskilby.co.uk/wp-content/uploads/2026/01/VMware-NVIDIA-logos_ee2f18dc-615d-4c9e-8f11-9c3c2ce2bf37-prv.png)\n\n[Ansible](https://jameskilby.co.uk/category/ansible/) | [Artificial Intelligence](https://jameskilby.co.uk/category/a..."
    },
    {
      "slug": "automated-vcf-9-offline-depot",
      "title": "Automated VCF 9 Offline Depot",
      "description": "Automated VCF 9 Offline Depot: one Bash script gives you Traefik, Nginx, basic auth, and Let's Encrypt wildcard certs via Cloudflare DNS.",
      "date": "2026-04-10T11:36:03Z",
      "modified": "2026-04-10T15:24:29Z",
      "author": "James Kilby",
      "url": "https://jameskilby.co.uk/2026/04/automated-vcf-9-offline-depot/",
      "markdown_url": "/markdown/posts/automated-vcf-9-offline-depot.md",
      "api_url": "/api/posts/automated-vcf-9-offline-depot.json",
      "categories": [
        "Ansible",
        "Automation",
        "Docker",
        "Homelab",
        "Traefik",
        "VCF",
        "VMware",
        "TrueNAS Scale",
        "vSAN",
        "vSphere",
        "VMware Cloud on AWS",
        "Artificial Intelligence",
        "Containers",
        "Devops",
        "NVIDIA",
        "Personal",
        "Hosting",
        "Cloudflare",
        "Wordpress"
      ],
      "tags": [
        null,
        null,
        null,
        null,
        null,
        null,
        null,
        null,
        null,
        null,
        null,
        null,
        null,
        null,
        null
      ],
      "image": "https://jameskilby.co.uk/wp-content/uploads/2026/04/offlinedepot.png",
      "excerpt": "![Automated VCF 9 Offline Depot architecture diagram showing Traefik reverse proxy and Nginx file server stack](https://jameskilby.co.uk/wp-content/uploads/2026/04/offlinedepot.png)\n\n[Ansible](https://jameskilby.co.uk/category/ansible/) | [Automation](https://jameskilby.co.uk/category/automation/) |..."
    },
    {
      "slug": "apple-content-caching",
      "title": "How Apple Content Caching Works: Speed Up iOS & Mac Updates",
      "description": "I have slowly morphed into an Apple fanboy over the last decade or so collecting a large number of devices ever since my first MacBook Air back in 2011. When...",
      "date": "2021-02-08T14:12:23Z",
      "modified": "2026-04-11T09:00:45Z",
      "author": "James Kilby",
      "url": "https://jameskilby.co.uk/2021/02/apple-content-caching/",
      "markdown_url": "/markdown/posts/apple-content-caching.md",
      "api_url": "/api/posts/apple-content-caching.json",
      "categories": [
        "Apple"
      ],
      "tags": [
        null,
        null
      ],
      "image": "https://jameskilby.co.uk/wp-content/uploads/2021/02/iu.png",
      "excerpt": "![Iu](https://jameskilby.co.uk/wp-content/uploads/2021/02/iu.png)\n\n[Apple](https://jameskilby.co.uk/category/apple/)\n\n# How Apple Content Caching Works: Speed Up iOS & Mac Updates\n\nBy[James](https://jameskilby.co.uk)February 8, 2021April 11, 2026 • 📖2 min read(313 words)\n\n📅 **Published:** February 0..."
    },
    {
      "slug": "and-now-for-something-completely-different",
      "title": "And now for something completely different",
      "description": "Join me in my journey at Zen Internet, evolving roles and tackling challenges. Learn more about my experiences and insights in the tech industry.",
      "date": "2018-10-16T08:22:45Z",
      "modified": "2026-03-10T20:35:16Z",
      "author": "James Kilby",
      "url": "https://jameskilby.co.uk/2018/10/and-now-for-something-completely-different/",
      "markdown_url": "/markdown/posts/and-now-for-something-completely-different.md",
      "api_url": "/api/posts/and-now-for-something-completely-different.json",
      "categories": [
        "Personal",
        "Nutanix",
        "Hosting",
        "VMware",
        "vSphere",
        "Consulting",
        "Cloudflare",
        "Wordpress"
      ],
      "image": "https://jameskilby.co.uk/wp-content/uploads/2025/12/ChatGPT-Image-Dec-17-2025-at-09_03_10-PM.png",
      "excerpt": "![Fwbxyba7](https://jameskilby.co.uk/wp-content/uploads/2018/10/fWbXybA7.png)\n\n[Personal](https://jameskilby.co.uk/category/personal/)\n\n# And now for something completely different\n\nBy[James](https://jameskilby.co.uk)October 16, 2018March 10, 2026 • 📖1 min read(263 words)\n\n📅 **Published:** October 1..."
    },
    {
      "slug": "analytics-in-a-privacy-focused-world",
      "title": "Analytics in a privacy focused world",
      "description": "I recently helped my friend Dean Lewis @veducate with some hosting issues. As part of the testing of this he kindly gave me a login to his WordPress instance...",
      "date": "2023-11-10T16:45:03Z",
      "modified": "2026-03-10T20:35:12Z",
      "author": "James Kilby",
      "url": "https://jameskilby.co.uk/2023/11/analytics-in-a-privacy-focused-world/",
      "markdown_url": "/markdown/posts/analytics-in-a-privacy-focused-world.md",
      "api_url": "/api/posts/analytics-in-a-privacy-focused-world.json",
      "categories": [
        "Hosting",
        "Personal",
        "Wordpress",
        "VMware",
        "vSphere",
        "Nutanix",
        "AWS",
        "Cloudflare"
      ],
      "tags": [
        null,
        null,
        null,
        null,
        null,
        null,
        null
      ],
      "image": "https://jameskilby.co.uk/wp-content/uploads/2023/11/plausible-analytics-icon-top.png",
      "excerpt": "![Plausible Analytics Icon Top](https://jameskilby.co.uk/wp-content/uploads/2023/11/plausible-analytics-icon-top.png)\n\n[Hosting](https://jameskilby.co.uk/category/hosting/) | [Personal](https://jameskilby.co.uk/category/personal/)\n\n# Analytics in a privacy focused world\n\nBy[James](https://jameskilby..."
    }
  ],
  "page": 7,
  "per_page": 10,
  "total": 72,
  "total_pages": 8
}