{
  "posts": [
    {
      "slug": "and-now-for-something-completely-different",
      "title": "And now for something completely different",
      "description": "I have worked for my current employer Zen Internet for 3.5 years. Over that time I have changed roles from what was originally a customer-focused role into...",
      "date": "2018-10-16T08:22:45Z",
      "modified": "2026-04-16T22:02:02Z",
      "author": "James Kilby",
      "url": "https://jameskilby.co.uk/2018/10/and-now-for-something-completely-different/",
      "markdown_url": "/markdown/posts/and-now-for-something-completely-different.md",
      "api_url": "/api/posts/and-now-for-something-completely-different.json",
      "categories": [
        "Personal",
        "Hosting",
        "AWS",
        "Cloudflare",
        "Wordpress",
        "VMware",
        "Consulting"
      ],
      "image": "https://jameskilby.co.uk/wp-content/uploads/2025/12/ChatGPT-Image-Dec-17-2025-at-09_03_10-PM.png",
      "excerpt": "![Fwbxyba7](https://jameskilby.co.uk/wp-content/uploads/2018/10/fWbXybA7.png)\n\n[Personal](https://jameskilby.co.uk/category/personal/)\n\n# And now for something completely different\n\nBy[James](https://jameskilby.co.uk)October 16, 2018April 16, 2026 • 📖1 min read(263 words)\n\n📅 **Published:** October 1..."
    },
    {
      "slug": "analytics-in-a-privacy-focused-world",
      "title": "Analytics in a privacy focused world",
      "description": "I recently helped my friend Dean Lewis @veducate with some hosting issues. As part of the testing of this he kindly gave me a login to his WordPress instance...",
      "date": "2023-11-10T16:45:03Z",
      "modified": "2026-04-16T22:01:49Z",
      "author": "James Kilby",
      "url": "https://jameskilby.co.uk/2023/11/analytics-in-a-privacy-focused-world/",
      "markdown_url": "/markdown/posts/analytics-in-a-privacy-focused-world.md",
      "api_url": "/api/posts/analytics-in-a-privacy-focused-world.json",
      "categories": [
        "Hosting",
        "Personal",
        "Consulting",
        "Artificial Intelligence",
        "Docker",
        "Cloudflare",
        "Wordpress",
        "AWS",
        "VMware",
        "vSphere"
      ],
      "tags": [
        null,
        null,
        null,
        null,
        null,
        null,
        null
      ],
      "image": "https://jameskilby.co.uk/wp-content/uploads/2023/11/plausible-analytics-icon-top.png",
      "excerpt": "![Plausible Analytics Icon Top](https://jameskilby.co.uk/wp-content/uploads/2023/11/plausible-analytics-icon-top.png)\n\n[Hosting](https://jameskilby.co.uk/category/hosting/) | [Personal](https://jameskilby.co.uk/category/personal/)\n\n# Analytics in a privacy focused world\n\nBy[James](https://jameskilby..."
    },
    {
      "slug": "advanced-deploy-vmware-vsphere-7-x-3v0-22-21n",
      "title": "Advanced Deploy VMware vSphere 7.x 3V0-22.21N",
      "description": "Yesterday I sat and passed the above exam. It had been on my todo list for a good number of years. With the current pause in the Broadcom VMware takeover dea...",
      "date": "2023-11-10T11:34:42Z",
      "modified": "2026-04-16T22:01:49Z",
      "author": "James Kilby",
      "url": "https://jameskilby.co.uk/2023/11/advanced-deploy-vmware-vsphere-7-x-3v0-22-21n/",
      "markdown_url": "/markdown/posts/advanced-deploy-vmware-vsphere-7-x-3v0-22-21n.md",
      "api_url": "/api/posts/advanced-deploy-vmware-vsphere-7-x-3v0-22-21n.json",
      "categories": [
        "VMware",
        "Personal",
        "vSphere",
        "Ansible",
        "Artificial Intelligence",
        "Containers",
        "Devops",
        "Homelab",
        "NVIDIA",
        "Traefik",
        "Nutanix",
        "VMware Cloud on AWS",
        "vSAN",
        "Networking",
        "Storage"
      ],
      "tags": [
        null,
        null,
        null
      ],
      "image": "https://jameskilby.co.uk/wp-content/uploads/2023/11/image.png",
      "excerpt": "![Image](https://jameskilby.co.uk/wp-content/uploads/2023/11/image.png)\n\n[VMware](https://jameskilby.co.uk/category/vmware/) | [Personal](https://jameskilby.co.uk/category/personal/) | [vSphere](https://jameskilby.co.uk/category/vsphere/)\n\n# Advanced Deploy VMware vSphere 7.x 3V0-22.21N\n\nBy[James](h..."
    },
    {
      "slug": "100gb-s-in-my-homelab-sort-of",
      "title": "MikroTik CRS504 Review: 100Gb/s Networking in My Homelab",
      "description": "For a while, I’ve been looking to update the networking at the core of my homelab. I have had some great results with the current setup utilising a number o...",
      "date": "2022-12-19T10:09:58Z",
      "modified": "2026-04-16T22:01:52Z",
      "author": "James Kilby",
      "url": "https://jameskilby.co.uk/2022/12/100gb-s-in-my-homelab-sort-of/",
      "markdown_url": "/markdown/posts/100gb-s-in-my-homelab-sort-of.md",
      "api_url": "/api/posts/100gb-s-in-my-homelab-sort-of.json",
      "categories": [
        "Homelab",
        "Networking",
        "Storage",
        "VMware",
        "VMware Cloud on AWS",
        "Artificial Intelligence",
        "Automation",
        "Docker",
        "NVIDIA",
        "Traefik",
        "Nutanix",
        "Personal"
      ],
      "tags": [
        null,
        null
      ],
      "image": "https://jameskilby.co.uk/wp-content/uploads/2023/04/2157_hi_res.png",
      "excerpt": "![2157 Hi Res](https://jameskilby.co.uk/wp-content/uploads/2023/04/2157_hi_res.png)\n\n[Homelab](https://jameskilby.co.uk/category/homelab/) | [Networking](https://jameskilby.co.uk/category/networking/) | [Storage](https://jameskilby.co.uk/category/storage/) | [VMware](https://jameskilby.co.uk/categor..."
    }
  ],
  "page": 8,
  "per_page": 10,
  "total": 74,
  "total_pages": 8
}