{
  "posts": [
    {
      "slug": "vmc-quick-sizing-guide",
      "title": "VMware Cloud on AWS Storage Sizing Quick Reference Guide",
      "description": "Get essential insights on storage resources in VMware Cloud on AWS. Use our quick sizing guide for efficient planning and management.",
      "date": "2025-05-21T09:33:04Z",
      "modified": "2026-04-11T09:00:47Z",
      "author": "James Kilby",
      "url": "https://jameskilby.co.uk/2025/05/vmc-quick-sizing-guide/",
      "markdown_url": "/markdown/posts/vmc-quick-sizing-guide.md",
      "api_url": "/api/posts/vmc-quick-sizing-guide.json",
      "categories": [
        "VMware",
        "VMware Cloud on AWS",
        "Runecast",
        "Artificial Intelligence",
        "Automation",
        "Docker",
        "Homelab",
        "NVIDIA",
        "Traefik",
        "AWS",
        "Veeam"
      ],
      "tags": [
        null,
        null,
        null
      ],
      "image": "https://jameskilby.co.uk/wp-content/uploads/2025/02/Picture-1-e1768509620339.png",
      "excerpt": "![Picture 1 E1768509620339](https://jameskilby.co.uk/wp-content/uploads/2025/02/Picture-1-e1768509620339.png)\n\n[VMware](https://jameskilby.co.uk/category/vmware/) | [VMware Cloud on AWS](https://jameskilby.co.uk/category/vmware/vmware-cloud-on-aws/)\n\n# VMware Cloud on AWS Storage Sizing Quick Refere..."
    },
    {
      "slug": "vmc-host-errors",
      "title": "How VMware Cloud on AWS Handles Host Failures Automatically",
      "description": "Learn how VMware Cloud on AWS handles host errors seamlessly. Ensure your infrastructure remains resilient and efficient. Get started today!",
      "date": "2020-09-15T10:56:32Z",
      "modified": "2026-04-11T09:00:44Z",
      "author": "James Kilby",
      "url": "https://jameskilby.co.uk/2020/09/vmc-host-errors/",
      "markdown_url": "/markdown/posts/vmc-host-errors.md",
      "api_url": "/api/posts/vmc-host-errors.json",
      "categories": [
        "VMware",
        "VMware Cloud on AWS",
        "AWS",
        "Veeam",
        "Homelab",
        "Storage",
        "vExpert",
        "VCF"
      ],
      "tags": [
        null,
        null,
        null,
        null,
        null,
        null
      ],
      "image": "https://jameskilby.co.uk/wp-content/uploads/2022/11/iu-1-1024x526.png",
      "excerpt": "![Iu 1](https://jameskilby.co.uk/wp-content/uploads/2022/11/iu-1.png)\n\n[VMware](https://jameskilby.co.uk/category/vmware/) | [VMware Cloud on AWS](https://jameskilby.co.uk/category/vmware/vmware-cloud-on-aws/)\n\n# How VMware Cloud on AWS Handles Host Failures Automatically\n\nBy[James](https://jameskil..."
    },
    {
      "slug": "vmc-host-deepdive",
      "title": "An in-depth look at VMware Cloud on AWS hosts",
      "description": "This is single page intended to collate every single feature of the current VMware Cloud on AWS hosts for easy comparison.",
      "date": "2025-08-14T12:32:01Z",
      "modified": "2026-04-16T22:01:42Z",
      "author": "James Kilby",
      "url": "https://jameskilby.co.uk/2025/08/vmc-host-deepdive/",
      "markdown_url": "/markdown/posts/vmc-host-deepdive.md",
      "api_url": "/api/posts/vmc-host-deepdive.json",
      "categories": [
        "VMware",
        "VMware Cloud on AWS",
        "Personal",
        "vSphere",
        "Homelab",
        "Networking",
        "Storage",
        "Artificial Intelligence",
        "Automation",
        "Docker",
        "NVIDIA",
        "Traefik",
        "AWS",
        "Veeam"
      ],
      "tags": [
        null
      ],
      "image": "https://jameskilby.co.uk/wp-content/uploads/2025/02/Picture-1-e1768509620339.png",
      "excerpt": "![Picture 1 E1768509620339](https://jameskilby.co.uk/wp-content/uploads/2025/02/Picture-1-e1768509620339.png)\n\n[VMware](https://jameskilby.co.uk/category/vmware/) | [VMware Cloud on AWS](https://jameskilby.co.uk/category/vmware/vmware-cloud-on-aws/)\n\n# An in-depth look at VMware Cloud on AWS hosts\n\n..."
    },
    {
      "slug": "vgpu-setup-in-my-homelab",
      "title": "Nvidia Tesla P4 vGPU Setup in VMware Homelab: Full Guide",
      "description": "A little while ago I decided to play with vGPU in my homelab. This was something I had dabbled with in the past but never really had the time or need to get...",
      "date": "2023-10-23T14:56:58Z",
      "modified": "2026-04-16T22:01:49Z",
      "author": "James Kilby",
      "url": "https://jameskilby.co.uk/2023/10/vgpu-setup-in-my-homelab/",
      "markdown_url": "/markdown/posts/vgpu-setup-in-my-homelab.md",
      "api_url": "/api/posts/vgpu-setup-in-my-homelab.json",
      "categories": [
        "Homelab",
        "VMware",
        "Storage",
        "Personal",
        "vSphere",
        "Automation",
        "AWS",
        "Veeam"
      ],
      "tags": [
        null,
        null,
        null
      ],
      "image": "https://jameskilby.co.uk/wp-content/uploads/2023/10/IMG_1107-768x403-1.jpg",
      "excerpt": "![Img 1107 768X403 1](https://jameskilby.co.uk/wp-content/uploads/2023/10/IMG_1107-768x403-1.jpg)\n\n[Homelab](https://jameskilby.co.uk/category/homelab/) | [VMware](https://jameskilby.co.uk/category/vmware/)\n\n# Nvidia Tesla P4 vGPU Setup in VMware Homelab: Full Guide\n\nBy[James](https://jameskilby.co...."
    },
    {
      "slug": "veeamon2020",
      "title": "VeeamON 2020: Highlights From Veeam’s Virtual Conference",
      "description": "As everyone knows by now the world has changed possibly forever. Due to Covid19 working from home has become the new normal.",
      "date": "2020-06-18T14:42:45Z",
      "modified": "2026-04-16T22:02:00Z",
      "author": "James Kilby",
      "url": "https://jameskilby.co.uk/2020/06/veeamon2020/",
      "markdown_url": "/markdown/posts/veeamon2020.md",
      "api_url": "/api/posts/veeamon2020.json",
      "categories": [
        "Veeam",
        "Homelab",
        "VMware",
        "AWS"
      ],
      "tags": [
        null,
        null
      ],
      "image": "https://jameskilby.co.uk/wp-content/uploads/2020/06/veeam-logo-new-large-1934042827.png",
      "excerpt": "![Veeam Logo New Large 1934042827](https://jameskilby.co.uk/wp-content/uploads/2020/06/veeam-logo-new-large-1934042827.png)\n\n[Veeam](https://jameskilby.co.uk/category/veeam/)\n\n# VeeamON 2020: Highlights From Veeam’s Virtual Conference\n\nBy[James](https://jameskilby.co.uk)June 18, 2020April 16, 2026 •..."
    },
    {
      "slug": "using-content-libraries-in-vmc-to-deploy-software-faster",
      "title": "Using Content Libraries in VMC to deploy software faster",
      "description": "Learn how to use VMware Content Libraries in VMware Cloud on AWS (VMC) to speed up template and VM deployments, reducing manual steps and improving consistency.",
      "date": "2026-01-27T22:19:39Z",
      "modified": "2026-03-12T21:52:11Z",
      "author": "James Kilby",
      "url": "https://jameskilby.co.uk/2026/01/using-content-libraries-in-vmc-to-deploy-software-faster/",
      "markdown_url": "/markdown/posts/using-content-libraries-in-vmc-to-deploy-software-faster.md",
      "api_url": "/api/posts/using-content-libraries-in-vmc-to-deploy-software-faster.json",
      "categories": [
        "VMware",
        "VMware Cloud on AWS",
        "Ansible",
        "Artificial Intelligence",
        "Containers",
        "Devops",
        "Homelab",
        "NVIDIA",
        "Traefik",
        "Storage",
        "vExpert",
        "Automation",
        "Docker",
        "Personal"
      ],
      "tags": [
        null,
        null,
        null,
        null
      ],
      "image": "https://jameskilby.co.uk/wp-content/uploads/2026/01/Firefly_Gemini-Flash.png",
      "excerpt": "![Firefly Gemini Flash](https://jameskilby.co.uk/wp-content/uploads/2026/01/Firefly_Gemini-Flash.png)\n\n[VMware](https://jameskilby.co.uk/category/vmware/) | [VMware Cloud on AWS](https://jameskilby.co.uk/category/vmware/vmware-cloud-on-aws/)\n\n# Using Content Libraries in VMC to deploy software faste..."
    },
    {
      "slug": "use-portainer-in-a-homelab-with-github",
      "title": "Use Portainer in a Homelab with GitHub",
      "description": "Late to the party or not, I have been using containers in my lab more and more and that has led me to Portainer ….",
      "date": "2022-12-09T09:06:37Z",
      "modified": "2026-04-16T22:01:53Z",
      "author": "James Kilby",
      "url": "https://jameskilby.co.uk/2022/12/use-portainer-in-a-homelab-with-github/",
      "markdown_url": "/markdown/posts/use-portainer-in-a-homelab-with-github.md",
      "api_url": "/api/posts/use-portainer-in-a-homelab-with-github.json",
      "categories": [
        "Docker",
        "Homelab",
        "Hosting",
        "Kubernetes",
        "Automation",
        "VMware",
        "Cloudflare",
        "Wordpress",
        "Networking",
        "Personal",
        "Nutanix"
      ],
      "tags": [
        null,
        null,
        null
      ],
      "image": "https://jameskilby.co.uk/wp-content/uploads/2022/12/22225832.png",
      "excerpt": "![22225832](https://jameskilby.co.uk/wp-content/uploads/2022/12/22225832.png)\n\n[Docker](https://jameskilby.co.uk/category/docker/) | [Homelab](https://jameskilby.co.uk/category/homelab/) | [Hosting](https://jameskilby.co.uk/category/hosting/) | [Kubernetes](https://jameskilby.co.uk/category/kubernet..."
    },
    {
      "slug": "unifi-dhcp-option-43",
      "title": "Configure DHCP Option 43 for UniFi devices to enable remote adoption across subnets",
      "description": "I have recently juggled some of my homelab services around, which involved moving my UniFi server to a different subnet. This meant that new UniFi devices co...",
      "date": "2024-06-26T10:50:17Z",
      "modified": "2026-03-10T20:35:12Z",
      "author": "James Kilby",
      "url": "https://jameskilby.co.uk/2024/06/unifi-dhcp-option-43/",
      "markdown_url": "/markdown/posts/unifi-dhcp-option-43.md",
      "api_url": "/api/posts/unifi-dhcp-option-43.json",
      "categories": [
        "Homelab",
        "Networking",
        "Storage",
        "Synology",
        "vExpert",
        "Docker",
        "Hosting",
        "Kubernetes",
        "Ansible",
        "Artificial Intelligence",
        "Containers",
        "Devops",
        "NVIDIA",
        "Traefik",
        "VMware"
      ],
      "tags": [
        null,
        null,
        null
      ],
      "image": "https://jameskilby.co.uk/wp-content/uploads/2024/06/Ubiquiti_Networks-Logo.wine_-1024x683.png",
      "excerpt": "![Ubiquiti Networks Logo.Wine ](https://jameskilby.co.uk/wp-content/uploads/2024/06/Ubiquiti_Networks-Logo.wine_.png)\n\n[Homelab](https://jameskilby.co.uk/category/homelab/) | [Networking](https://jameskilby.co.uk/category/networking/)\n\n# Configure DHCP Option 43 for UniFi devices to enable remote ad..."
    },
    {
      "slug": "ubuntu-disk-expansion-steps",
      "title": "How to Expand Ubuntu Disk Space: LVM pvresize Step-by-Step",
      "description": "How to expand disks from the command line in Ubuntu. This is something I do fairly frequently, and I can never remember the steps.",
      "date": "2025-12-15T20:56:40Z",
      "modified": "2026-04-16T22:01:40Z",
      "author": "James Kilby",
      "url": "https://jameskilby.co.uk/2025/12/ubuntu-disk-expansion-steps/",
      "markdown_url": "/markdown/posts/ubuntu-disk-expansion-steps.md",
      "api_url": "/api/posts/ubuntu-disk-expansion-steps.json",
      "categories": [
        "Ubuntu",
        "Ansible",
        "Automation",
        "Docker",
        "Homelab",
        "Traefik",
        "VCF",
        "VMware"
      ],
      "tags": [
        null,
        null
      ],
      "image": "https://jameskilby.co.uk/wp-content/uploads/2025/12/UbuntuExpand.png",
      "excerpt": "![Ubuntuexpand](https://jameskilby.co.uk/wp-content/uploads/2025/12/UbuntuExpand.png)\n\n[Ubuntu](https://jameskilby.co.uk/category/ubuntu/)\n\n# How to Expand Ubuntu Disk Space: LVM pvresize Step-by-Step\n\nBy[James](https://jameskilby.co.uk)December 15, 2025April 16, 2026 • 📖1 min read(91 words)\n\n📅 **Pu..."
    },
    {
      "slug": "truenas-scale-useful-commands",
      "title": "TrueNAS Scale CLI Reference: Storage & Kubernetes Commands",
      "description": "TrueNAS Scale Useful Commands: Unlock the power of your storage with essential commands. Enhance your TrueNAS experience today!",
      "date": "2023-11-13T14:34:17Z",
      "modified": "2026-04-11T09:00:47Z",
      "author": "James Kilby",
      "url": "https://jameskilby.co.uk/2023/11/truenas-scale-useful-commands/",
      "markdown_url": "/markdown/posts/truenas-scale-useful-commands.md",
      "api_url": "/api/posts/truenas-scale-useful-commands.json",
      "categories": [
        "Kubernetes",
        "TrueNAS Scale",
        "Docker",
        "Homelab",
        "Hosting",
        "Storage",
        "vExpert",
        "VMware",
        "vSAN",
        "vSphere"
      ],
      "tags": [
        null,
        null
      ],
      "image": "https://jameskilby.co.uk/wp-content/uploads/2023/05/Screenshot-2023-05-22-at-18.49.21.png",
      "excerpt": "![TrueNAS Logo](https://jameskilby.co.uk/wp-content/uploads/2023/05/Screenshot-2023-05-22-at-18.49.21.png)\n\n[Kubernetes](https://jameskilby.co.uk/category/kubernetes/) | [TrueNAS Scale](https://jameskilby.co.uk/category/truenas-scale/)\n\n# TrueNAS Scale CLI Reference: Storage & Kubernetes Commands\n\nB..."
    }
  ],
  "page": 2,
  "per_page": 10,
  "total": 74,
  "total_pages": 8
}