{
  "posts": [
    {
      "slug": "lab-update-part-3-network",
      "title": "Homelab Network Upgrade: DACs, 40Gb/s vMotion & pfSense",
      "description": "I have retired the WatchGuard Devices with the migration to PFSense running bare-metal in one of the Supermicro Nodes. I will likely virtualise this in the f...",
      "date": "2022-01-06T19:25:40Z",
      "modified": "2026-04-16T22:01:55Z",
      "author": "James Kilby",
      "url": "https://jameskilby.co.uk/2022/01/lab-update-part-3-network/",
      "markdown_url": "/markdown/posts/lab-update-part-3-network.md",
      "api_url": "/api/posts/lab-update-part-3-network.json",
      "categories": [
        "Homelab",
        "Networking",
        "Nutanix",
        "VMware",
        "Artificial Intelligence",
        "Automation",
        "Docker",
        "NVIDIA",
        "Traefik",
        "Ansible",
        "VCF",
        "Runecast",
        "TrueNAS Scale",
        "vSAN",
        "vSphere"
      ],
      "tags": [
        null,
        null
      ],
      "image": "https://jameskilby.co.uk/wp-content/uploads/2025/12/ChatGPT-Image-Dec-17-2025-at-09_03_10-PM.png",
      "excerpt": "[Homelab](https://jameskilby.co.uk/category/homelab/) | [Networking](https://jameskilby.co.uk/category/networking/)\n\n# Homelab Network Upgrade: DACs, 40Gb/s vMotion & pfSense\n\nBy[James](https://jameskilby.co.uk)January 6, 2022April 16, 2026 • 📖1 min read(113 words)\n\n📅 **Published:** January 06, 2022..."
    },
    {
      "slug": "lab-update-part-2-storage",
      "title": "Lab Update – Part 2 Storage Truenas Scale",
      "description": "The HP Z840 has changed its role to a permanent storage box running Truenas Scale. This is in addition to my Synology DS918+...",
      "date": "2022-01-11T22:35:02Z",
      "modified": "2026-04-16T22:01:55Z",
      "author": "James Kilby",
      "url": "https://jameskilby.co.uk/2022/01/lab-update-part-2-storage/",
      "markdown_url": "/markdown/posts/lab-update-part-2-storage.md",
      "api_url": "/api/posts/lab-update-part-2-storage.json",
      "categories": [
        "Homelab",
        "Storage",
        "Artificial Intelligence",
        "Synology",
        "VMware",
        "Nutanix",
        "Docker",
        "Hosting",
        "Kubernetes",
        "TrueNAS Scale"
      ],
      "tags": [
        null,
        null,
        null,
        null
      ],
      "image": "https://jameskilby.co.uk/wp-content/uploads/2022/01/maxresdefault.jpeg",
      "excerpt": "![Maxresdefault](https://jameskilby.co.uk/wp-content/uploads/2022/01/maxresdefault.jpeg)\n\n[Homelab](https://jameskilby.co.uk/category/homelab/) | [Storage](https://jameskilby.co.uk/category/storage/)\n\n# Lab Update – Part 2 Storage Truenas Scale\n\nBy[James](https://jameskilby.co.uk)January 11, 2022Apr..."
    },
    {
      "slug": "lab-update-part-1-compute",
      "title": "Lab Update – Compute",
      "description": "Part 1 of my homelab compute refresh: adding a SuperMicro BigTwin chassis (2027TR-H71FRF) with four X9DRT nodes for high-density virtualisation at home.",
      "date": "2022-01-06T11:12:00Z",
      "modified": "2026-02-16T16:15:03Z",
      "author": "James Kilby",
      "url": "https://jameskilby.co.uk/2022/01/lab-update-part-1-compute/",
      "markdown_url": "/markdown/posts/lab-update-part-1-compute.md",
      "api_url": "/api/posts/lab-update-part-1-compute.json",
      "categories": [
        "Homelab",
        "VMware",
        "VCF",
        "Networking",
        "vSAN",
        "Storage",
        "Personal",
        "Docker",
        "Hosting",
        "Kubernetes"
      ],
      "tags": [
        null,
        null,
        null
      ],
      "image": "https://jameskilby.co.uk/wp-content/uploads/2023/04/IMG_4536-scaled-1-768x1024.jpg",
      "excerpt": "![Img 4536 Scaled 1](https://jameskilby.co.uk/wp-content/uploads/2023/04/IMG_4536-scaled-1.jpg)\n\n[Homelab](https://jameskilby.co.uk/category/homelab/) | [VMware](https://jameskilby.co.uk/category/vmware/)\n\n# Lab Update – Compute\n\nBy[James](https://jameskilby.co.uk)January 6, 2022February 16, 2026 • ..."
    },
    {
      "slug": "lab-storage",
      "title": "My First Homelab Storage Setup: HP Gen8 & Xpenology",
      "description": "I have been meaning to post around some of the lab setup for a while. Although it changes frequently at present it's as below.",
      "date": "2018-01-06T17:39:20Z",
      "modified": "2026-04-16T22:02:04Z",
      "author": "James Kilby",
      "url": "https://jameskilby.co.uk/2018/01/lab-storage/",
      "markdown_url": "/markdown/posts/lab-storage.md",
      "api_url": "/api/posts/lab-storage.json",
      "categories": [
        "Homelab",
        "Storage",
        "Synology",
        "Artificial Intelligence",
        "Automation",
        "Docker",
        "NVIDIA",
        "Traefik",
        "VMware",
        "Veeam",
        "VCF"
      ],
      "tags": [
        null,
        null
      ],
      "image": "https://jameskilby.co.uk/wp-content/uploads/2025/12/ChatGPT-Image-Dec-17-2025-at-09_03_10-PM.png",
      "excerpt": "[Homelab](https://jameskilby.co.uk/category/homelab/) | [Storage](https://jameskilby.co.uk/category/storage/) | [Synology](https://jameskilby.co.uk/category/synology/)\n\n# My First Homelab Storage Setup: HP Gen8 & Xpenology\n\nBy[James](https://jameskilby.co.uk)January 6, 2018April 16, 2026 • 📖1 min re..."
    },
    {
      "slug": "lab-storage-2",
      "title": "Homelab Storage Upgrade: Synology DS918 for VMware & NFS",
      "description": "Since starting my new role with Xtravirt my Homelab has gone through several fairly significant changes. At the moment it’s very much focused on the VMware ...",
      "date": "2019-02-10T23:59:20Z",
      "modified": "2026-04-16T22:02:01Z",
      "author": "James Kilby",
      "url": "https://jameskilby.co.uk/2019/02/lab-storage-2/",
      "markdown_url": "/markdown/posts/lab-storage-2.md",
      "api_url": "/api/posts/lab-storage-2.json",
      "categories": [
        "Homelab",
        "Storage",
        "Synology",
        "VCF",
        "VMware",
        "Ansible",
        "Mikrotik",
        "Networking",
        "vExpert"
      ],
      "tags": [
        null,
        null,
        null
      ],
      "image": "https://jameskilby.co.uk/wp-content/uploads/2023/04/81-ZoEW24UL._SL1500_.jpg",
      "excerpt": "![81 Zoew24Ul. Sl1500 ](https://jameskilby.co.uk/wp-content/uploads/2023/04/81-ZoEW24UL._SL1500_.jpg)\n\n[Homelab](https://jameskilby.co.uk/category/homelab/)\n\n# Homelab Storage Upgrade: Synology DS918 for VMware & NFS\n\nBy[James](https://jameskilby.co.uk)February 10, 2019April 16, 2026 • 📖1 min read(2..."
    },
    {
      "slug": "intel-optane",
      "title": "Using Intel Optane NVMe in a VMware Homelab: Setup & Results",
      "description": "I have been a VMware vExpert for many years and it has brought me many many benefits over the years. I don’t think it’s an understatement to say I probably w...",
      "date": "2023-04-17T12:20:04Z",
      "modified": "2026-04-16T22:01:51Z",
      "author": "James Kilby",
      "url": "https://jameskilby.co.uk/2023/04/intel-optane/",
      "markdown_url": "/markdown/posts/intel-optane.md",
      "api_url": "/api/posts/intel-optane.json",
      "categories": [
        "Homelab",
        "Storage",
        "vExpert",
        "Mikrotik",
        "Networking",
        "Ansible",
        "Artificial Intelligence",
        "Containers",
        "Devops",
        "NVIDIA",
        "Traefik",
        "VMware",
        "Nutanix"
      ],
      "tags": [
        null,
        null,
        null,
        null,
        null,
        null,
        null
      ],
      "image": "https://jameskilby.co.uk/wp-content/uploads/2023/04/intel_optane_ssd_900p_series_aic_-_right_angle_575px.png",
      "excerpt": "![Intel Optane Ssd 900P Series Aic Right Angle 575Px](https://jameskilby.co.uk/wp-content/uploads/2023/04/intel_optane_ssd_900p_series_aic_-_right_angle_575px.png)\n\n[Homelab](https://jameskilby.co.uk/category/homelab/) | [Storage](https://jameskilby.co.uk/category/storage/) | [vExpert](https://james..."
    },
    {
      "slug": "i3en",
      "title": "VMware Cloud on AWS i3en Host: Specs, Storage & Performance",
      "description": "VMware Cloud on AWS (VMC) has introduced a new host to its lineup the “i3en”. This is based on the i3en.metal AWS instance....",
      "date": "2020-07-02T22:01:39Z",
      "modified": "2026-04-16T22:01:59Z",
      "author": "James Kilby",
      "url": "https://jameskilby.co.uk/2020/07/i3en/",
      "markdown_url": "/markdown/posts/i3en.md",
      "api_url": "/api/posts/i3en.json",
      "categories": [
        "VMware",
        "VMware Cloud on AWS",
        "Homelab",
        "Nutanix",
        "Ansible",
        "Automation",
        "Docker",
        "Traefik",
        "VCF",
        "Veeam",
        "vSAN",
        "TrueNAS Scale",
        "vSphere",
        "AWS"
      ],
      "tags": [
        null,
        null
      ],
      "image": "https://jameskilby.co.uk/wp-content/uploads/2022/11/iu-1-1024x526.png",
      "excerpt": "![VMware Cloud on AWS \\(VMC\\) resource hub](https://jameskilby.co.uk/wp-content/uploads/2022/11/iu-1.png)\n\n[VMware](https://jameskilby.co.uk/category/vmware/) | [VMware Cloud on AWS](https://jameskilby.co.uk/category/vmware/vmware-cloud-on-aws/)\n\n# VMware Cloud on AWS i3en Host: Specs, Storage & Per..."
    },
    {
      "slug": "how-to-take-a-wordpress-site-and-publish-it-as-a-static-site-on-cloudflare-pages",
      "title": "WordPress Hosting with Cloudflare Pages",
      "description": "Table of Contents The Tooling The Process WordPress Plugin Install GitHub setup Cloudflare setup I have been using Cloudflare to protect my web assets for",
      "date": "2023-05-14T07:00:35Z",
      "modified": "2026-04-16T22:01:51Z",
      "author": "James Kilby",
      "url": "https://jameskilby.co.uk/2023/05/how-to-take-a-wordpress-site-and-publish-it-as-a-static-site-on-cloudflare-pages/",
      "markdown_url": "/markdown/posts/how-to-take-a-wordpress-site-and-publish-it-as-a-static-site-on-cloudflare-pages.md",
      "api_url": "/api/posts/how-to-take-a-wordpress-site-and-publish-it-as-a-static-site-on-cloudflare-pages.json",
      "categories": [
        "Cloudflare",
        "Hosting",
        "Wordpress",
        "Ansible",
        "Automation",
        "Docker",
        "Homelab",
        "Traefik",
        "VCF",
        "VMware",
        "Kubernetes",
        "Personal"
      ],
      "tags": [
        null,
        null,
        null,
        null
      ],
      "image": "https://jameskilby.co.uk/wp-content/uploads/2023/05/Screenshot-2023-05-13-at-10.31.30.png",
      "excerpt": "![Simply Static Logo](https://jameskilby.co.uk/wp-content/uploads/2023/05/simply-static-logo.png)\n\n[Cloudflare](https://jameskilby.co.uk/category/cloudflare/) | [Hosting](https://jameskilby.co.uk/category/hosting/) | [Wordpress](https://jameskilby.co.uk/category/wordpress/)\n\n# WordPress Hosting with..."
    },
    {
      "slug": "how-i-moved-my-wordpress-site-to-cloudflare-pages",
      "title": "Static WordPress hosting using Cloudflare",
      "description": "For a while now I have been running this site directly from Cloudflare utilising their excellent worker’s product. I did this originally as a learning exerci...",
      "date": "2022-10-20T15:26:08Z",
      "modified": "2026-04-16T22:01:53Z",
      "author": "James Kilby",
      "url": "https://jameskilby.co.uk/2022/10/how-i-moved-my-wordpress-site-to-cloudflare-pages/",
      "markdown_url": "/markdown/posts/how-i-moved-my-wordpress-site-to-cloudflare-pages.md",
      "api_url": "/api/posts/how-i-moved-my-wordpress-site-to-cloudflare-pages.json",
      "categories": [
        "Cloudflare",
        "Hosting",
        "Wordpress",
        "Ansible",
        "Automation",
        "Docker",
        "Homelab",
        "Traefik",
        "VCF",
        "VMware",
        "Personal",
        "AWS",
        "Kubernetes"
      ],
      "tags": [
        null,
        null,
        null,
        null
      ],
      "image": "https://jameskilby.co.uk/wp-content/uploads/2022/10/iu.jpeg",
      "excerpt": "![Iu](https://jameskilby.co.uk/wp-content/uploads/2022/10/iu.jpeg)\n\n[Cloudflare](https://jameskilby.co.uk/category/cloudflare/) | [Hosting](https://jameskilby.co.uk/category/hosting/) | [Wordpress](https://jameskilby.co.uk/category/wordpress/)\n\n# Static WordPress hosting using Cloudflare\n\nBy[James](..."
    },
    {
      "slug": "how-i-migrated-from-pocket-to-hoarder-and-introduced-some-ai-along-the-way",
      "title": "How I Migrated from Pocket to Hoarder with AI Integration",
      "description": "Update: Hoarder has now been renamed to Karakeep due to a trademark issue I've been on a mission recently to regain control of my data.",
      "date": "2025-01-29T23:31:56Z",
      "modified": "2026-04-16T22:01:43Z",
      "author": "James Kilby",
      "url": "https://jameskilby.co.uk/2025/01/how-i-migrated-from-pocket-to-hoarder-and-introduced-some-ai-along-the-way/",
      "markdown_url": "/markdown/posts/how-i-migrated-from-pocket-to-hoarder-and-introduced-some-ai-along-the-way.md",
      "api_url": "/api/posts/how-i-migrated-from-pocket-to-hoarder-and-introduced-some-ai-along-the-way.json",
      "categories": [
        "Artificial Intelligence",
        "Docker",
        "Hosting",
        "Automation",
        "AWS",
        "Homelab",
        "Networking",
        "Storage",
        "VMware",
        "Veeam",
        "vExpert"
      ],
      "tags": [
        null,
        null,
        null,
        null,
        null
      ],
      "image": "https://jameskilby.co.uk/wp-content/uploads/2025/01/Screenshot-2025-01-29-at-23.30.47-1024x547.png",
      "excerpt": "![Screenshot 2025 01 29 At 23.30.47](https://jameskilby.co.uk/wp-content/uploads/2025/01/Screenshot-2025-01-29-at-23.30.47.png)\n\n[Artificial Intelligence](https://jameskilby.co.uk/category/artificial-intelligence/) | [Docker](https://jameskilby.co.uk/category/docker/) | [Hosting](https://jameskilby...."
    }
  ],
  "page": 5,
  "per_page": 10,
  "total": 72,
  "total_pages": 8
}