{
  "posts": [
    {
      "slug": "time-in-a-vmc-environment",
      "title": "VMware Cloud on AWS Time Sync & NTP Configuration",
      "description": "How VMware Cloud on AWS handles time sync NTP via the Amazon Time Sync Service. Configure NSX firewall rules for UDP port 123 on VMC guest workloads.",
      "date": "2025-12-08T14:03:44Z",
      "modified": "2026-04-11T09:00:47Z",
      "author": "James Kilby",
      "url": "https://jameskilby.co.uk/2025/12/time-in-a-vmc-environment/",
      "markdown_url": "/markdown/posts/time-in-a-vmc-environment.md",
      "api_url": "/api/posts/time-in-a-vmc-environment.json",
      "categories": [
        "VMware Cloud on AWS",
        "VMware"
      ],
      "tags": [
        null,
        null
      ],
      "image": "https://jameskilby.co.uk/wp-content/uploads/2025/02/Picture-1-e1768509620339.png",
      "excerpt": "![Picture 1 E1768509620339](https://jameskilby.co.uk/wp-content/uploads/2025/02/Picture-1-e1768509620339.png)\n\n[VMware Cloud on AWS](https://jameskilby.co.uk/category/vmware/vmware-cloud-on-aws/)\n\n# VMware Cloud on AWS Time Sync & NTP Configuration\n\nBy[James](https://jameskilby.co.uk)December 8, 202..."
    },
    {
      "slug": "starlink",
      "title": "Starlink Satellite Internet Review: Rural Broadband Solution",
      "description": "Since moving to Dorset last year internet connectivity has been the bane of my existence. Currently, I have an ADSL connection provided by my old employer Ze...",
      "date": "2022-10-11T21:40:50Z",
      "modified": "2026-04-11T09:00:46Z",
      "author": "James Kilby",
      "url": "https://jameskilby.co.uk/2022/10/starlink/",
      "markdown_url": "/markdown/posts/starlink.md",
      "api_url": "/api/posts/starlink.json",
      "categories": [
        "Homelab",
        "Hosting",
        "VMware",
        "vSphere",
        "Storage",
        "TrueNAS Scale",
        "Mikrotik",
        "Networking",
        "Personal"
      ],
      "tags": [
        null,
        null
      ],
      "image": "https://jameskilby.co.uk/wp-content/uploads/2022/10/spacexs-starlink-to-supply-free-satellite-internet-to-famili_u44u.1920.jpg",
      "excerpt": "![Spacexs Starlink To Supply Free Satellite Internet To Famili U44U.1920](https://jameskilby.co.uk/wp-content/uploads/2022/10/spacexs-starlink-to-supply-free-satellite-internet-to-famili_u44u.1920.jpg)\n\n[Homelab](https://jameskilby.co.uk/category/homelab/) | [Hosting](https://jameskilby.co.uk/catego..."
    },
    {
      "slug": "self-hosting-ai-stack-using-vsphere-docker-and-nvidia-gpu",
      "title": "Self Hosting AI Stack using vSphere, Docker and NVIDIA GPU",
      "description": "Self Hosting AI Stack using vSphere, Docker and NVIDIA GPU, Self Hosted solutions for AI enthusiasts. Start your AI journey today!",
      "date": "2024-10-11T15:03:26Z",
      "modified": "2026-03-10T20:35:14Z",
      "author": "James Kilby",
      "url": "https://jameskilby.co.uk/2024/10/self-hosting-ai-stack-using-vsphere-docker-and-nvidia-gpu/",
      "markdown_url": "/markdown/posts/self-hosting-ai-stack-using-vsphere-docker-and-nvidia-gpu.md",
      "api_url": "/api/posts/self-hosting-ai-stack-using-vsphere-docker-and-nvidia-gpu.json",
      "categories": [
        "Artificial Intelligence",
        "Docker",
        "Homelab",
        "Mikrotik",
        "Networking",
        "Storage",
        "Hosting",
        "Synology",
        "Ansible",
        "Containers",
        "Devops",
        "NVIDIA",
        "Traefik",
        "VMware"
      ],
      "tags": [
        null,
        null,
        null
      ],
      "image": "https://jameskilby.co.uk/wp-content/uploads/2024/10/pexels-tara-winstead-8386440-1024x683.jpg",
      "excerpt": "![Pexels Tara Winstead 8386440 Scaled](https://jameskilby.co.uk/wp-content/uploads/2024/10/pexels-tara-winstead-8386440-scaled.jpg)\n\n[Artificial Intelligence](https://jameskilby.co.uk/category/artificial-intelligence/) | [Docker](https://jameskilby.co.uk/category/docker/) | [Homelab](https://jameski..."
    },
    {
      "slug": "runecast-remediation-scripts",
      "title": "Runecast Remediation Scripts: Auto-Fix VMware Storage Issues",
      "description": "I am a huge fan of the Runecast product and luckily as a vExpert they give out NFR licences for my lab. One of the really cool features I wanted to mention...",
      "date": "2023-05-16T10:38:45Z",
      "modified": "2026-04-11T09:00:46Z",
      "author": "James Kilby",
      "url": "https://jameskilby.co.uk/2023/05/runecast-remediation-scripts/",
      "markdown_url": "/markdown/posts/runecast-remediation-scripts.md",
      "api_url": "/api/posts/runecast-remediation-scripts.json",
      "categories": [
        "Runecast",
        "VMware",
        "Personal",
        "vSphere",
        "Artificial Intelligence",
        "Automation",
        "Docker",
        "Homelab",
        "NVIDIA",
        "Traefik",
        "VCF",
        "AWS",
        "Veeam",
        "Hosting"
      ],
      "tags": [
        null,
        null,
        null,
        null
      ],
      "image": "https://jameskilby.co.uk/wp-content/uploads/2023/05/Runecast-Solutions-Ltd.png",
      "excerpt": "![Runecast Solutions Ltd](https://jameskilby.co.uk/wp-content/uploads/2023/05/Runecast-Solutions-Ltd.png)\n\n[Runecast](https://jameskilby.co.uk/category/runecast/) | [VMware](https://jameskilby.co.uk/category/vmware/)\n\n# Runecast Remediation Scripts: Auto-Fix VMware Storage Issues\n\nBy[James](https://..."
    },
    {
      "slug": "octopus-agile-battery-solar-calculator",
      "title": "Free Octopus Agile Battery & Solar Calculator: 5 Batteries Tested",
      "description": "A free Octopus Agile battery calculator using your real usage data to show if a home battery or solar is worth the investment. Tests 5 UK batteries.",
      "date": "2026-03-09T23:39:37Z",
      "modified": "2026-04-11T09:00:47Z",
      "author": "James Kilby",
      "url": "https://jameskilby.co.uk/2026/03/octopus-agile-battery-solar-calculator/",
      "markdown_url": "/markdown/posts/octopus-agile-battery-solar-calculator.md",
      "api_url": "/api/posts/octopus-agile-battery-solar-calculator.json",
      "categories": [
        "Artificial Intelligence",
        "Automation",
        "Ansible",
        "Docker",
        "Homelab",
        "Traefik",
        "VCF",
        "VMware",
        "Hosting",
        "Containers",
        "Devops",
        "NVIDIA"
      ],
      "tags": [
        null,
        null,
        null
      ],
      "image": "https://jameskilby.co.uk/wp-content/uploads/2026/03/Octopus-Energy-logo.jpg",
      "excerpt": "![Octopus Energy Logo](https://jameskilby.co.uk/wp-content/uploads/2026/03/Octopus-Energy-logo.jpg)\n\n[Artificial Intelligence](https://jameskilby.co.uk/category/artificial-intelligence/) | [Automation](https://jameskilby.co.uk/category/automation/)\n\n# Free Octopus Agile Battery & Solar Calculator: 5..."
    },
    {
      "slug": "nutanix-ncp",
      "title": "Passing the Nutanix NCP Exam: Free Training & My Experience",
      "description": "A first-hand account of sitting the Nutanix Certified Professional (NCP) exam, including free training resources, exam tips, and hands-on Nutanix experience.",
      "date": "2020-07-02T15:20:30Z",
      "modified": "2026-04-11T09:00:44Z",
      "author": "James Kilby",
      "url": "https://jameskilby.co.uk/2020/07/nutanix-ncp/",
      "markdown_url": "/markdown/posts/nutanix-ncp.md",
      "api_url": "/api/posts/nutanix-ncp.json",
      "categories": [
        "Nutanix",
        "Personal",
        "Homelab",
        "VMware",
        "vSphere",
        "Devops",
        "Hosting",
        "Cloudflare",
        "Wordpress",
        "AWS"
      ],
      "tags": [
        null,
        null
      ],
      "image": "https://jameskilby.co.uk/wp-content/uploads/2020/07/nutanix-logo-HI-REZ_reverse-w-carrier.jpg",
      "excerpt": "![Nutanix Logo Hi Rez Reverse W Carrier](https://jameskilby.co.uk/wp-content/uploads/2020/07/nutanix-logo-HI-REZ_reverse-w-carrier.jpg)\n\n[Nutanix](https://jameskilby.co.uk/category/nutanix/) | [Personal](https://jameskilby.co.uk/category/personal/)\n\n# Passing the Nutanix NCP Exam: Free Training & My..."
    },
    {
      "slug": "nutanix-command-reference-guide",
      "title": "Nutanix Command Reference Guide",
      "description": "Access a comprehensive list of useful Nutanix commands. Enhance your skills and streamline your operations with our handy reference guide.",
      "date": "2018-06-05T20:59:24Z",
      "modified": "2026-03-10T20:35:15Z",
      "author": "James Kilby",
      "url": "https://jameskilby.co.uk/2018/06/nutanix-command-reference-guide/",
      "markdown_url": "/markdown/posts/nutanix-command-reference-guide.md",
      "api_url": "/api/posts/nutanix-command-reference-guide.json",
      "categories": [
        "Nutanix",
        "Homelab",
        "VMware",
        "Personal"
      ],
      "tags": [
        null,
        null
      ],
      "image": "https://jameskilby.co.uk/wp-content/uploads/2020/07/nutanix-logo-HI-REZ_reverse-w-carrier.jpg",
      "excerpt": "![Nutanix Logo Hi Rez Reverse W Carrier](https://jameskilby.co.uk/wp-content/uploads/2020/07/nutanix-logo-HI-REZ_reverse-w-carrier.jpg)\n\n[Nutanix](https://jameskilby.co.uk/category/nutanix/)\n\n# Nutanix Command Reference Guide\n\nBy[James](https://jameskilby.co.uk)June 5, 2018March 10, 2026 • 📖1 min re..."
    },
    {
      "slug": "nutanix-ce",
      "title": "Running Nutanix CE at Home: AHV Setup & First Impressions",
      "description": "Learn about running Nutanix CE on a home server. Check out my setup, installation process, and updates on virtual machines and storage sharing.",
      "date": "2018-01-06T17:28:56Z",
      "modified": "2026-04-11T09:00:42Z",
      "author": "James Kilby",
      "url": "https://jameskilby.co.uk/2018/01/nutanix-ce/",
      "markdown_url": "/markdown/posts/nutanix-ce.md",
      "api_url": "/api/posts/nutanix-ce.json",
      "categories": [
        "Homelab",
        "Nutanix",
        "Storage",
        "TrueNAS Scale",
        "Automation",
        "VMware",
        "Personal",
        "Synology",
        "Ansible",
        "Docker",
        "Traefik",
        "VCF"
      ],
      "tags": [
        null
      ],
      "image": "https://jameskilby.co.uk/wp-content/uploads/2020/07/nutanix-logo-HI-REZ_reverse-w-carrier.jpg",
      "excerpt": "![Nutanix Logo Hi Rez Reverse W Carrier](https://jameskilby.co.uk/wp-content/uploads/2020/07/nutanix-logo-HI-REZ_reverse-w-carrier.jpg)\n\n[Homelab](https://jameskilby.co.uk/category/homelab/) | [Nutanix](https://jameskilby.co.uk/category/nutanix/)\n\n# Running Nutanix CE at Home: AHV Setup & First Impr..."
    },
    {
      "slug": "new-vmc-host-i7i-metal-24xl",
      "title": "New VMC Host i7i.metal-24xl",
      "description": "We’ve expanded the VMC fleet with the new i7i (i7i.24xlarge) host type. Powered by Intel Emerald Rapids processors with PCIe Gen5 connectivity, it delivers",
      "date": "2026-04-01T08:06:00Z",
      "modified": "2026-04-02T08:52:56Z",
      "author": "James Kilby",
      "url": "https://jameskilby.co.uk/2026/04/new-vmc-host-i7i-metal-24xl/",
      "markdown_url": "/markdown/posts/new-vmc-host-i7i-metal-24xl.md",
      "api_url": "/api/posts/new-vmc-host-i7i-metal-24xl.json",
      "categories": [
        "VMware",
        "VMware Cloud on AWS",
        "vSAN",
        "TrueNAS Scale",
        "vSphere",
        "Personal"
      ],
      "tags": [
        null,
        null,
        null
      ],
      "image": "https://jameskilby.co.uk/wp-content/uploads/2026/03/VMConAWS.png.webp",
      "excerpt": "![Vmconaws.Png](https://jameskilby.co.uk/wp-content/uploads/2026/03/VMConAWS.png.webp)\n\n[VMware](https://jameskilby.co.uk/category/vmware/) | [VMware Cloud on AWS](https://jameskilby.co.uk/category/vmware/vmware-cloud-on-aws/)\n\n# New VMC Host i7i.metal-24xl\n\nBy[James](https://jameskilby.co.uk)April ..."
    },
    {
      "slug": "new-nodes",
      "title": "New Homelab Nodes: SuperMicro BigTwin for VMware & Nutanix",
      "description": "Nutanix Homelab,New Nodes: Learn how I upgraded my setup with cost-effective Nutanix nodes. Get insights on configuration and setup now!",
      "date": "2024-07-02T08:01:04Z",
      "modified": "2026-04-11T09:00:47Z",
      "author": "James Kilby",
      "url": "https://jameskilby.co.uk/2024/07/new-nodes/",
      "markdown_url": "/markdown/posts/new-nodes.md",
      "api_url": "/api/posts/new-nodes.json",
      "categories": [
        "Homelab",
        "Nutanix",
        "VMware",
        "VCF",
        "Artificial Intelligence",
        "Automation",
        "Docker",
        "NVIDIA",
        "Traefik",
        "VMware Cloud on AWS"
      ],
      "tags": [
        null,
        null,
        null
      ],
      "image": "https://jameskilby.co.uk/wp-content/uploads/2024/04/Screenshot-2024-04-06-at-22.50.57.png",
      "excerpt": "![Img 6629 Scaled](https://jameskilby.co.uk/wp-content/uploads/2024/07/IMG_6629-scaled.jpeg)\n\n[Homelab](https://jameskilby.co.uk/category/homelab/) | [Nutanix](https://jameskilby.co.uk/category/nutanix/) | [VMware](https://jameskilby.co.uk/category/vmware/)\n\n# New Homelab Nodes: SuperMicro BigTwin f..."
    }
  ],
  "page": 3,
  "per_page": 10,
  "total": 72,
  "total_pages": 8
}