{
  "posts": [
    {
      "slug": "homelab-storage-refresh-part-1",
      "title": "Homelab Storage Refresh (Part 1)",
      "description": "I have just completed the move of all my production and media-based storage/services to TrueNAS Scale. ( I will just refer to this as TrueNAS) This is based ...",
      "date": "2023-05-23T12:07:09Z",
      "modified": "2026-03-10T20:35:13Z",
      "author": "James Kilby",
      "url": "https://jameskilby.co.uk/2023/05/homelab-storage-refresh-part-1/",
      "markdown_url": "/markdown/posts/homelab-storage-refresh-part-1.md",
      "api_url": "/api/posts/homelab-storage-refresh-part-1.json",
      "categories": [
        "Homelab",
        "Storage",
        "Automation",
        "VMware",
        "Networking",
        "Nutanix",
        "Veeam",
        "Artificial Intelligence",
        "Docker"
      ],
      "tags": [
        null,
        null,
        null
      ],
      "image": "https://jameskilby.co.uk/wp-content/uploads/2023/05/Screenshot-2023-05-22-at-18.49.21.png",
      "excerpt": "![TrueNAS Logo](https://jameskilby.co.uk/wp-content/uploads/2023/05/Screenshot-2023-05-22-at-18.49.21.png)\n\n[Homelab](https://jameskilby.co.uk/category/homelab/) | [Storage](https://jameskilby.co.uk/category/storage/)\n\n# Homelab Storage Refresh (Part 1)\n\nBy[James](https://jameskilby.co.uk)May 23, 20..."
    },
    {
      "slug": "homelab-bad-days-almost",
      "title": "Homelab bad days (almost)",
      "description": "Facing SSD issues in your homelab? Learn about RAID 5 pitfalls and how to protect your data effectively. Read more for essential tips!",
      "date": "2022-11-21T15:46:53Z",
      "modified": "2026-03-10T20:35:15Z",
      "author": "James Kilby",
      "url": "https://jameskilby.co.uk/2022/11/homelab-bad-days-almost/",
      "markdown_url": "/markdown/posts/homelab-bad-days-almost.md",
      "api_url": "/api/posts/homelab-bad-days-almost.json",
      "categories": [
        "Homelab",
        "Storage",
        "Synology",
        "Networking",
        "VMware",
        "VCF",
        "Runecast",
        "vSphere",
        "Mikrotik"
      ],
      "tags": [
        null,
        null
      ],
      "image": "https://jameskilby.co.uk/wp-content/uploads/2022/11/BrokenHardDive-1200x630-1.jpg",
      "excerpt": "![Brokenharddive 1200X630 1](https://jameskilby.co.uk/wp-content/uploads/2022/11/BrokenHardDive-1200x630-1.jpg)\n\n[Homelab](https://jameskilby.co.uk/category/homelab/) | [Storage](https://jameskilby.co.uk/category/storage/) | [Synology](https://jameskilby.co.uk/category/synology/)\n\n# Homelab bad days..."
    },
    {
      "slug": "home-network-upgrade",
      "title": "Home Network Upgrade",
      "description": "Home Network Upgrade,100Gb Homelab. Transform your home networking with 25Gb/s solutions for a future-proof setup. Learn more about my journey!",
      "date": "2024-09-09T08:25:08Z",
      "modified": "2025-10-24T14:21:56Z",
      "author": "James Kilby",
      "url": "https://jameskilby.co.uk/2024/09/home-network-upgrade/",
      "markdown_url": "/markdown/posts/home-network-upgrade.md",
      "api_url": "/api/posts/home-network-upgrade.json",
      "categories": [
        "Mikrotik",
        "Networking",
        "Homelab",
        "Storage",
        "TrueNAS Scale",
        "Veeam",
        "VMware",
        "VCF"
      ],
      "tags": [
        null,
        null,
        null
      ],
      "image": "https://jameskilby.co.uk/wp-content/uploads/2024/09/s-l1600.jpg",
      "excerpt": "![CRS-504](https://jameskilby.co.uk/wp-content/uploads/2024/09/s-l1600.jpg)\n\n[Mikrotik](https://jameskilby.co.uk/category/mikrotik/) | [Networking](https://jameskilby.co.uk/category/networking/)\n\n# Home Network Upgrade\n\nBy[James](https://jameskilby.co.uk)September 9, 2024October 24, 2025 • 📖2 min re..."
    },
    {
      "slug": "holodeck-cpu-fixes",
      "title": "Holodeck CPU Fixes",
      "description": "Holodeck CPU Fixes: Learn how to deploy Holodeck with legacy CPUs. Follow our guide for a smoother setup and troubleshooting tips.",
      "date": "2024-01-18T14:37:04Z",
      "modified": "2026-03-10T06:47:57Z",
      "author": "James Kilby",
      "url": "https://jameskilby.co.uk/2024/01/holodeck-cpu-fixes/",
      "markdown_url": "/markdown/posts/holodeck-cpu-fixes.md",
      "api_url": "/api/posts/holodeck-cpu-fixes.json",
      "categories": [
        "VCF",
        "VMware",
        "Homelab",
        "Networking",
        "Mikrotik",
        "Artificial Intelligence",
        "Veeam",
        "Docker",
        "Hosting",
        "Personal"
      ],
      "tags": [
        null,
        null,
        null,
        null
      ],
      "image": "https://jameskilby.co.uk/wp-content/uploads/2024/01/40oOd8IipPvtrPJs-1198788743.jpg",
      "excerpt": "![40Ood8Iippvtrpjs 1198788743](https://jameskilby.co.uk/wp-content/uploads/2024/01/40oOd8IipPvtrPJs-1198788743.jpg)\n\n[VCF](https://jameskilby.co.uk/category/vmware/vcf/) | [VMware](https://jameskilby.co.uk/category/vmware/)\n\n# Holodeck CPU Fixes\n\nBy[James](https://jameskilby.co.uk)January 18, 2024Ma..."
    },
    {
      "slug": "hashicorp-packer",
      "title": "Template Deployment with Packer",
      "description": "Packer is one of those tools I have heard about, and some of the cool people on Twitter that I follow have been using it for a while. But until now I had nev...",
      "date": "2021-01-21T22:26:10Z",
      "modified": "2026-03-10T20:35:14Z",
      "author": "James Kilby",
      "url": "https://jameskilby.co.uk/2021/01/hashicorp-packer/",
      "markdown_url": "/markdown/posts/hashicorp-packer.md",
      "api_url": "/api/posts/hashicorp-packer.json",
      "categories": [
        "Automation",
        "Homelab",
        "VMware",
        "VCF",
        "Personal",
        "vSphere",
        "Artificial Intelligence",
        "Docker",
        "Storage",
        "vExpert"
      ],
      "tags": [
        null,
        null,
        null,
        null
      ],
      "image": "https://jameskilby.co.uk/wp-content/uploads/2021/01/logo_packer.png",
      "excerpt": "![Logo Packer](https://jameskilby.co.uk/wp-content/uploads/2021/01/logo_packer.png)\n\n[Automation](https://jameskilby.co.uk/category/automation/) | [Homelab](https://jameskilby.co.uk/category/homelab/) | [VMware](https://jameskilby.co.uk/category/vmware/)\n\n# Template Deployment with Packer\n\nBy[James]..."
    },
    {
      "slug": "going-out-with-a-bang",
      "title": "VMware – Going out with a Bang!",
      "description": "There is a lot of uncertainty with VMware at the moment. This is all due to the pending acquisition by Broadcom. There are a lot of unknowns for the staff an...",
      "date": "2023-10-07T12:37:14Z",
      "modified": "2026-03-10T20:35:12Z",
      "author": "James Kilby",
      "url": "https://jameskilby.co.uk/2023/10/going-out-with-a-bang/",
      "markdown_url": "/markdown/posts/going-out-with-a-bang.md",
      "api_url": "/api/posts/going-out-with-a-bang.json",
      "categories": [
        "VMware",
        "Personal",
        "Consulting",
        "Nutanix",
        "AWS",
        "Veeam",
        "vSphere",
        "Homelab",
        "Storage",
        "vExpert",
        "Artificial Intelligence",
        "Automation",
        "Docker",
        "NVIDIA",
        "Traefik"
      ],
      "tags": [
        null,
        null,
        null,
        null
      ],
      "image": "https://jameskilby.co.uk/wp-content/uploads/2023/10/rnli-logo.png",
      "excerpt": "![Rnli Logo](https://jameskilby.co.uk/wp-content/uploads/2023/10/rnli-logo.png)\n\n[VMware](https://jameskilby.co.uk/category/vmware/) | [Personal](https://jameskilby.co.uk/category/personal/)\n\n# VMware – Going out with a Bang!\n\nBy[James](https://jameskilby.co.uk)October 7, 2023March 10, 2026 • 📖1 min..."
    },
    {
      "slug": "forcing-an-upgrade-to-vsphere-8",
      "title": "Forcing an Upgrade to vSphere 8",
      "description": "Forcing an Upgrade to vSphere 8? Learn the essential steps and tips for a smooth transition in your VMware homelab setup. Get started now!",
      "date": "2022-12-14T21:43:39Z",
      "modified": "2026-03-10T20:35:13Z",
      "author": "James Kilby",
      "url": "https://jameskilby.co.uk/2022/12/forcing-an-upgrade-to-vsphere-8/",
      "markdown_url": "/markdown/posts/forcing-an-upgrade-to-vsphere-8.md",
      "api_url": "/api/posts/forcing-an-upgrade-to-vsphere-8.json",
      "categories": [
        "Homelab",
        "VMware",
        "vSphere",
        "Storage",
        "vExpert",
        "Networking",
        "TrueNAS Scale",
        "vSAN",
        "Nutanix"
      ],
      "tags": [
        null,
        null
      ],
      "image": "https://jameskilby.co.uk/wp-content/uploads/2022/12/Screenshot-2022-12-14-at-21.24.32.png",
      "excerpt": "![Screenshot 2022 12 14 At 21.45.23](https://jameskilby.co.uk/wp-content/uploads/2022/12/Screenshot-2022-12-14-at-21.45.23.png)\n\n[Homelab](https://jameskilby.co.uk/category/homelab/) | [VMware](https://jameskilby.co.uk/category/vmware/) | [vSphere](https://jameskilby.co.uk/category/vsphere/)\n\n# Forc..."
    },
    {
      "slug": "configuring-a-zen-internet-and-city-fibre-connection-with-a-3rd-party-router",
      "title": "Configuring a Zen Internet and City Fibre connection with a 3rd party router",
      "description": "Learn how to configure your Zen Internet connection with City Fibre using a 3rd party router. Get better speed and lower costs today!",
      "date": "2023-11-15T19:27:48Z",
      "modified": "2026-03-10T20:35:12Z",
      "author": "James Kilby",
      "url": "https://jameskilby.co.uk/2023/11/configuring-a-zen-internet-and-city-fibre-connection-with-a-3rd-party-router/",
      "markdown_url": "/markdown/posts/configuring-a-zen-internet-and-city-fibre-connection-with-a-3rd-party-router.md",
      "api_url": "/api/posts/configuring-a-zen-internet-and-city-fibre-connection-with-a-3rd-party-router.json",
      "categories": [
        "Networking",
        "Mikrotik",
        "Homelab",
        "Storage",
        "VMware"
      ],
      "tags": [
        null,
        null,
        null,
        null
      ],
      "image": "https://jameskilby.co.uk/wp-content/uploads/2023/11/cityfibre-zen-1024x538.jpg",
      "excerpt": "![Cityfibre Zen](https://jameskilby.co.uk/wp-content/uploads/2023/11/cityfibre-zen.jpg)\n\n[Networking](https://jameskilby.co.uk/category/networking/)\n\n# Configuring a Zen Internet and City Fibre connection with a 3rd party router\n\nBy[James](https://jameskilby.co.uk)November 15, 2023March 10, 2026 • 📖..."
    },
    {
      "slug": "cloudflare",
      "title": "Cloudflare",
      "description": "How Cloudflare works as a WAF and CDN — free tier setup, DNS configuration, global PoP caching, and how to protect and accelerate your web server.",
      "date": "2018-03-27T12:30:48Z",
      "modified": "2026-03-10T07:57:22Z",
      "author": "James Kilby",
      "url": "https://jameskilby.co.uk/2018/03/cloudflare/",
      "markdown_url": "/markdown/posts/cloudflare.md",
      "api_url": "/api/posts/cloudflare.json",
      "categories": [
        "Hosting",
        "Cloudflare",
        "Personal",
        "Wordpress",
        "Homelab",
        "Artificial Intelligence",
        "Docker",
        "Kubernetes"
      ],
      "tags": [
        null
      ],
      "image": "https://jameskilby.co.uk/wp-content/uploads/2020/06/iu-2.png",
      "excerpt": "![Iu 2](https://jameskilby.co.uk/wp-content/uploads/2020/06/iu-2.png)\n\n[Hosting](https://jameskilby.co.uk/category/hosting/)\n\n# Cloudflare\n\nBy[James](https://jameskilby.co.uk)March 27, 2018March 10, 2026 • 📖1 min read(288 words)\n\n📅 **Published:** March 27, 2018• **Updated:** March 10, 2026\n\n## Cloud..."
    },
    {
      "slug": "cloudflare-workers-limits-of-the-free-tier",
      "title": "Cloudflare Workers – Limits of the free tier",
      "description": "Cloudflare Workers highlights the free tier limits. Learn how to manage your usage effectively and avoid 429 errors. Stay informed today!",
      "date": "2022-01-04T21:11:23Z",
      "modified": "2026-03-10T20:35:15Z",
      "author": "James Kilby",
      "url": "https://jameskilby.co.uk/2022/01/cloudflare-workers-limits-of-the-free-tier/",
      "markdown_url": "/markdown/posts/cloudflare-workers-limits-of-the-free-tier.md",
      "api_url": "/api/posts/cloudflare-workers-limits-of-the-free-tier.json",
      "categories": [
        "Hosting",
        "Wordpress",
        "AWS",
        "Cloudflare",
        "Personal",
        "Docker",
        "Homelab",
        "Kubernetes"
      ],
      "tags": [
        null,
        null,
        null
      ],
      "image": "https://jameskilby.co.uk/wp-content/uploads/2022/10/iu.jpeg",
      "excerpt": "![Iu](https://jameskilby.co.uk/wp-content/uploads/2022/10/iu.jpeg)\n\n[Hosting](https://jameskilby.co.uk/category/hosting/) | [Wordpress](https://jameskilby.co.uk/category/wordpress/)\n\n# Cloudflare Workers – Limits of the free tier\n\nBy[James](https://jameskilby.co.uk)January 4, 2022March 10, 2026 • 📖1..."
    }
  ],
  "page": 6,
  "per_page": 10,
  "total": 70,
  "total_pages": 7
}