{
  "posts": [
    {
      "slug": "zfs-on-vmware",
      "title": "How to Run ZFS on VMware vSphere: Setup Guide and Best Practices",
      "description": "Introduction Copy on Write Disk IDs Trim Introduction I have run a number of systems using ZFS since the earliest days of my homelab using Nexenta, all the",
      "date": "2024-12-18T17:47:57Z",
      "modified": "2026-04-16T22:01:43Z",
      "author": "James Kilby",
      "url": "https://jameskilby.co.uk/2024/12/zfs-on-vmware/",
      "markdown_url": "/markdown/posts/zfs-on-vmware.md",
      "api_url": "/api/posts/zfs-on-vmware.json",
      "categories": [
        "TrueNAS Scale",
        "VMware",
        "vSAN",
        "vSphere",
        "Homelab",
        "Artificial Intelligence",
        "Docker",
        "Ansible",
        "Containers",
        "Devops",
        "NVIDIA",
        "Traefik",
        "Storage"
      ],
      "tags": [
        null,
        null,
        null,
        null,
        null
      ],
      "image": "https://jameskilby.co.uk/wp-content/uploads/2024/12/IMG_20140330_210511-1024x845.jpeg",
      "excerpt": "![Zfs](https://jameskilby.co.uk/wp-content/uploads/2024/12/ZFS.jpg)\n\n[TrueNAS Scale](https://jameskilby.co.uk/category/truenas-scale/) | [VMware](https://jameskilby.co.uk/category/vmware/) | [vSAN](https://jameskilby.co.uk/category/vmware/vsan-vmware/) | [vSphere](https://jameskilby.co.uk/category/v..."
    },
    {
      "slug": "wrangler-and-node-versions",
      "title": "Fixing Wrangler Node.js Version Conflicts After Brew Upgrade",
      "description": "I am a massive fan of the brew package management system for macOS and use it on all of my Mac's I typically just upgrade everything blindly and have never",
      "date": "2022-01-15T08:42:36Z",
      "modified": "2026-04-16T22:01:54Z",
      "author": "James Kilby",
      "url": "https://jameskilby.co.uk/2022/01/wrangler-and-node-versions/",
      "markdown_url": "/markdown/posts/wrangler-and-node-versions.md",
      "api_url": "/api/posts/wrangler-and-node-versions.json",
      "categories": [
        "Cloudflare",
        "Ansible",
        "Automation",
        "Docker",
        "Homelab",
        "Traefik",
        "VCF",
        "VMware",
        "Artificial Intelligence",
        "NVIDIA",
        "Hosting",
        "Wordpress",
        "Devops",
        "Github",
        "Personal"
      ],
      "tags": [
        null,
        null,
        null,
        null
      ],
      "image": "https://jameskilby.co.uk/wp-content/uploads/2022/01/WranglerCrab-1.png",
      "excerpt": "![Wranglercrab 1](https://jameskilby.co.uk/wp-content/uploads/2022/01/WranglerCrab-1.png)\n\n[Cloudflare](https://jameskilby.co.uk/category/cloudflare/)\n\n# Fixing Wrangler Node.js Version Conflicts After Brew Upgrade\n\nBy[James](https://jameskilby.co.uk)January 15, 2022April 16, 2026 • 📖1 min read(217 ..."
    },
    {
      "slug": "whats-in-my-backpack",
      "title": "What’s In My Tech Bag? Everyday Carry for IT Consultants",
      "description": "I have seen a few posts online recently about the tools and technology people use on a day to day basis. A few components that I have no one seems to have ...",
      "date": "2019-01-10T21:48:41Z",
      "modified": "2026-04-16T22:02:02Z",
      "author": "James Kilby",
      "url": "https://jameskilby.co.uk/2019/01/whats-in-my-backpack/",
      "markdown_url": "/markdown/posts/whats-in-my-backpack.md",
      "api_url": "/api/posts/whats-in-my-backpack.json",
      "categories": [
        "Consulting",
        "Personal"
      ],
      "image": "https://jameskilby.co.uk/wp-content/uploads/2019/01/Picture1.png",
      "excerpt": "![Picture1](https://jameskilby.co.uk/wp-content/uploads/2019/01/Picture1.png)\n\n[Consulting](https://jameskilby.co.uk/category/consulting/)\n\n# What’s In My Tech Bag? Everyday Carry for IT Consultants\n\nBy[James](https://jameskilby.co.uk)January 10, 2019April 16, 2026 • 📖1 min read(250 words)\n\n📅 **Publ..."
    },
    {
      "slug": "web-development",
      "title": "Hosting This Blog on Cloudflare Workers: Why & How I Did It",
      "description": "A while ago I started messing with Cloudflare Workers. I have now moved this site permanently over to them. This is partly related to some issues I have bee...",
      "date": "2022-01-04T11:27:12Z",
      "modified": "2026-04-16T22:01:57Z",
      "author": "James Kilby",
      "url": "https://jameskilby.co.uk/2022/01/web-development/",
      "markdown_url": "/markdown/posts/web-development.md",
      "api_url": "/api/posts/web-development.json",
      "categories": [
        "Hosting",
        "Cloudflare",
        "Personal",
        "Wordpress",
        "AWS",
        "Artificial Intelligence",
        "Automation",
        "Docker",
        "Homelab",
        "NVIDIA",
        "Traefik",
        "VMware",
        "vSphere",
        "Consulting",
        "Kubernetes"
      ],
      "tags": [
        null,
        null
      ],
      "image": "https://jameskilby.co.uk/wp-content/uploads/2020/06/iu-2.png",
      "excerpt": "![Iu 2](https://jameskilby.co.uk/wp-content/uploads/2020/06/iu-2.png)\n\n[Hosting](https://jameskilby.co.uk/category/hosting/) | [Cloudflare](https://jameskilby.co.uk/category/cloudflare/) | [Personal](https://jameskilby.co.uk/category/personal/) | [Wordpress](https://jameskilby.co.uk/category/wordpre..."
    },
    {
      "slug": "web-development-improvements",
      "title": "Blog Performance & SEO Improvements: Cloudflare, Privacy & More",
      "description": "I have spent the Christmas break making some improvements to this blog. A lot of these are in “the backend” These help improve the performance, Privacy, SEO,...",
      "date": "2026-01-15T15:12:16Z",
      "modified": "2026-04-16T22:01:39Z",
      "author": "James Kilby",
      "url": "https://jameskilby.co.uk/2026/01/web-development-improvements/",
      "markdown_url": "/markdown/posts/web-development-improvements.md",
      "api_url": "/api/posts/web-development-improvements.json",
      "categories": [
        "Cloudflare",
        "Hosting",
        "Wordpress",
        "Docker",
        "Homelab",
        "Kubernetes",
        "AWS",
        "Artificial Intelligence",
        "Personal"
      ],
      "tags": [
        null,
        null,
        null,
        null
      ],
      "image": "https://jameskilby.co.uk/wp-content/uploads/2026/01/Website-Optimisations.png",
      "excerpt": "![Website Optimisations](https://jameskilby.co.uk/wp-content/uploads/2026/01/Website-Optimisations.png)\n\n[Cloudflare](https://jameskilby.co.uk/category/cloudflare/) | [Hosting](https://jameskilby.co.uk/category/hosting/) | [Wordpress](https://jameskilby.co.uk/category/wordpress/)\n\n# Blog Performance..."
    },
    {
      "slug": "warp-the-intelligent-terminal",
      "title": "Warp – The intelligent terminal",
      "description": "Warp is helping me run my homelab. It has been a big help for me as although I utilise a lot of linux based tools at home, I am mostly self taught and theref...",
      "date": "2025-04-11T15:46:23Z",
      "modified": "2026-04-16T22:01:42Z",
      "author": "James Kilby",
      "url": "https://jameskilby.co.uk/2025/04/warp-the-intelligent-terminal/",
      "markdown_url": "/markdown/posts/warp-the-intelligent-terminal.md",
      "api_url": "/api/posts/warp-the-intelligent-terminal.json",
      "categories": [
        "Artificial Intelligence",
        "Homelab",
        "Storage",
        "TrueNAS Scale",
        "Synology",
        "Automation",
        "Docker",
        "NVIDIA",
        "Traefik",
        "VMware",
        "Ansible",
        "Containers",
        "Devops"
      ],
      "tags": [
        null,
        null,
        null
      ],
      "image": "https://jameskilby.co.uk/wp-content/uploads/2025/04/210902461-012e7273-413a-4ec7-be44-e854347f5a21-1024x240.png",
      "excerpt": "![Wa](https://jameskilby.co.uk/wp-content/uploads/2025/04/210902461-012e7273-413a-4ec7-be44-e854347f5a21.png)\n\n[Artificial Intelligence](https://jameskilby.co.uk/category/artificial-intelligence/) | [Homelab](https://jameskilby.co.uk/category/homelab/)\n\n# Warp – The intelligent terminal\n\nBy[James](h..."
    },
    {
      "slug": "vsphere-power-management-driven-by-ansible",
      "title": "Automating vSphere Power Management driven by Ansible and SemaphoreUI",
      "description": "Learn how to automate vSphere power management using Ansible and SemaphoreUI, scheduling ESXi host shutdowns based on Octopus Agile energy tariffs to cut costs.",
      "date": "2026-04-15T21:36:41Z",
      "modified": "2026-04-19T11:04:39Z",
      "author": "James Kilby",
      "url": "https://jameskilby.co.uk/2026/04/vsphere-power-management-driven-by-ansible/",
      "markdown_url": "/markdown/posts/vsphere-power-management-driven-by-ansible.md",
      "api_url": "/api/posts/vsphere-power-management-driven-by-ansible.json",
      "categories": [
        "Ansible",
        "Automation",
        "VMware",
        "Personal",
        "vSphere",
        "Homelab",
        "Storage",
        "vExpert",
        "Artificial Intelligence",
        "Containers",
        "Devops",
        "NVIDIA",
        "Traefik"
      ],
      "tags": [
        null,
        null,
        null,
        null
      ],
      "image": "https://jameskilby.co.uk/wp-content/uploads/2026/04/vsphere-power-management-ansible.png",
      "excerpt": "![vSphere Power Management Ansible Playbooks with Semaphore](https://jameskilby.co.uk/wp-content/uploads/2026/04/vsphere-power-management-ansible.png)\n\n[Ansible](https://jameskilby.co.uk/category/ansible/) | [Automation](https://jameskilby.co.uk/category/automation/)\n\n# Automating vSphere Power Mana..."
    },
    {
      "slug": "vsan-esa-and-the-improvements-it-brings-to-vmc",
      "title": "vSAN ESA in VMware Cloud on AWS: What Changed in VMC M24",
      "description": "vSAN Express Storage Architecture (ESA) was announced at VMware Explore last year (2022) and while it’s been available for our on-premise customers for nearl...",
      "date": "2023-11-17T11:29:42Z",
      "modified": "2026-04-11T09:00:47Z",
      "author": "James Kilby",
      "url": "https://jameskilby.co.uk/2023/11/vsan-esa-and-the-improvements-it-brings-to-vmc/",
      "markdown_url": "/markdown/posts/vsan-esa-and-the-improvements-it-brings-to-vmc.md",
      "api_url": "/api/posts/vsan-esa-and-the-improvements-it-brings-to-vmc.json",
      "categories": [
        "VMware",
        "VMware Cloud on AWS",
        "vSAN",
        "Homelab",
        "Veeam",
        "VCF",
        "Artificial Intelligence",
        "Automation",
        "Docker",
        "NVIDIA",
        "Traefik",
        "AWS"
      ],
      "tags": [
        null,
        null,
        null,
        null
      ],
      "image": "https://jameskilby.co.uk/wp-content/uploads/2023/11/OrigionalPoweredByvSAN-550x324-1.jpg",
      "excerpt": "![Origionalpoweredbyvsan 550X324 1](https://jameskilby.co.uk/wp-content/uploads/2023/11/OrigionalPoweredByvSAN-550x324-1.jpg)\n\n[VMware](https://jameskilby.co.uk/category/vmware/) | [VMware Cloud on AWS](https://jameskilby.co.uk/category/vmware/vmware-cloud-on-aws/) | [vSAN](https://jameskilby.co.uk/..."
    },
    {
      "slug": "vsan-cluster-shutdown",
      "title": "vSAN Cluster Shutdown – Orchestration",
      "description": "Step-by-step guide to safely shutting down a vSAN cluster: the correct orchestration order for powering off VMs, hosts, and witness appliances without data l...",
      "date": "2025-12-06T10:59:14Z",
      "modified": "2026-03-10T20:35:15Z",
      "author": "James Kilby",
      "url": "https://jameskilby.co.uk/2025/12/vsan-cluster-shutdown/",
      "markdown_url": "/markdown/posts/vsan-cluster-shutdown.md",
      "api_url": "/api/posts/vsan-cluster-shutdown.json",
      "categories": [
        "VMware",
        "vSAN",
        "TrueNAS Scale",
        "vSphere",
        "VMware Cloud on AWS",
        "Runecast",
        "Homelab",
        "Artificial Intelligence",
        "Automation",
        "Docker",
        "NVIDIA",
        "Traefik"
      ],
      "image": "https://jameskilby.co.uk/wp-content/uploads/2023/11/OrigionalPoweredByvSAN-550x324-1.jpg",
      "excerpt": "![Origionalpoweredbyvsan 550X324 1](https://jameskilby.co.uk/wp-content/uploads/2023/11/OrigionalPoweredByvSAN-550x324-1.jpg)\n\n[VMware](https://jameskilby.co.uk/category/vmware/) | [vSAN](https://jameskilby.co.uk/category/vmware/vsan-vmware/)\n\n# vSAN Cluster Shutdown – Orchestration\n\nBy[James](https..."
    },
    {
      "slug": "vmware-certified-master-specialist-hci-2020",
      "title": "VMware Certified Master Specialist HCI 2020",
      "description": "I recently sat (and passed the VMware HCI Master Specialist exam (5V0-21.20). I won’t go into any details of the contents but I will comment that I felt the ...",
      "date": "2020-09-13T21:38:48Z",
      "modified": "2026-04-16T22:01:59Z",
      "author": "James Kilby",
      "url": "https://jameskilby.co.uk/2020/09/vmware-certified-master-specialist-hci-2020/",
      "markdown_url": "/markdown/posts/vmware-certified-master-specialist-hci-2020.md",
      "api_url": "/api/posts/vmware-certified-master-specialist-hci-2020.json",
      "categories": [
        "Personal",
        "VMware",
        "VMware Cloud on AWS",
        "Nutanix",
        "Homelab",
        "Storage",
        "vExpert",
        "AWS",
        "Veeam"
      ],
      "tags": [
        null,
        null,
        null
      ],
      "image": "https://jameskilby.co.uk/wp-content/uploads/2020/09/vmware_SP_HCI20.png",
      "excerpt": "![Vmware Sp Hci20](https://jameskilby.co.uk/wp-content/uploads/2020/09/vmware_SP_HCI20.png)\n\n[Personal](https://jameskilby.co.uk/category/personal/) | [VMware](https://jameskilby.co.uk/category/vmware/)\n\n# VMware Certified Master Specialist HCI 2020\n\nBy[James](https://jameskilby.co.uk)September 13, ..."
    }
  ],
  "page": 1,
  "per_page": 10,
  "total": 74,
  "total_pages": 8
}