{
  "posts": [
    {
      "slug": "new-nodes",
      "title": "New Homelab Nodes: SuperMicro BigTwin for VMware & Nutanix",
      "description": "I recently decided to update some of my homelab hosts and I managed to do this at very little cost by offloading 2 of my Supermicro e200’s to fellow vExper",
      "date": "2024-07-02T08:01:04Z",
      "modified": "2026-04-16T22:01:46Z",
      "author": "James Kilby",
      "url": "https://jameskilby.co.uk/2024/07/new-nodes/",
      "markdown_url": "/markdown/posts/new-nodes.md",
      "api_url": "/api/posts/new-nodes.json",
      "categories": [
        "Homelab",
        "Nutanix",
        "VMware",
        "VMware Cloud on AWS",
        "Ansible",
        "Storage",
        "TrueNAS Scale",
        "vSphere"
      ],
      "tags": [
        null,
        null,
        null
      ],
      "image": "https://jameskilby.co.uk/wp-content/uploads/2024/04/Screenshot-2024-04-06-at-22.50.57.png",
      "excerpt": "![Img 6629 Scaled](https://jameskilby.co.uk/wp-content/uploads/2024/07/IMG_6629-scaled.jpeg)\n\n[Homelab](https://jameskilby.co.uk/category/homelab/) | [Nutanix](https://jameskilby.co.uk/category/nutanix/) | [VMware](https://jameskilby.co.uk/category/vmware/)\n\n# New Homelab Nodes: SuperMicro BigTwin f..."
    },
    {
      "slug": "new-laptop",
      "title": "MacBook Air 2018 Retina Review: My Setup & Build Scripts",
      "description": "I decided it was about time I replaced my trusted MacBook Air that I purchased back in 2011. After waiting and watching the Apple announcements over the la...",
      "date": "2018-12-04T21:44:30Z",
      "modified": "2026-04-16T22:02:02Z",
      "author": "James Kilby",
      "url": "https://jameskilby.co.uk/2018/12/new-laptop/",
      "markdown_url": "/markdown/posts/new-laptop.md",
      "api_url": "/api/posts/new-laptop.json",
      "categories": [
        "Apple"
      ],
      "tags": [
        null,
        null,
        null
      ],
      "image": "https://jameskilby.co.uk/wp-content/uploads/2018/12/colorware.jpg",
      "excerpt": "![Colorware](https://jameskilby.co.uk/wp-content/uploads/2018/12/colorware.jpg)\n\n[Apple](https://jameskilby.co.uk/category/apple/)\n\n# MacBook Air 2018 Retina Review: My Setup & Build Scripts\n\nBy[James](https://jameskilby.co.uk)December 4, 2018April 16, 2026 • 📖1 min read(138 words)\n\n📅 **Published:**..."
    },
    {
      "slug": "my-self-hosted-ai-stack-infrastructure-deep-dive-part-2",
      "title": "My Self-Hosted AI Stack: Infrastructure Deep Dive (Part 2)",
      "description": "Part 2 of my self-hosted AI stack series. I cover container resource sizing, dual-network isolation via Traefik and Cloudflare Tunnels, and every database",
      "date": "2026-04-04T21:39:21Z",
      "modified": "2026-04-16T22:01:37Z",
      "author": "James Kilby",
      "url": "https://jameskilby.co.uk/2026/04/my-self-hosted-ai-stack-infrastructure-deep-dive-part-2/",
      "markdown_url": "/markdown/posts/my-self-hosted-ai-stack-infrastructure-deep-dive-part-2.md",
      "api_url": "/api/posts/my-self-hosted-ai-stack-infrastructure-deep-dive-part-2.json",
      "categories": [
        "Artificial Intelligence",
        "Automation",
        "Docker",
        "Homelab",
        "NVIDIA",
        "Traefik",
        "VMware",
        "Ansible",
        "Containers",
        "Devops",
        "Networking",
        "Storage",
        "Hosting",
        "vSAN",
        "VCF",
        "VMware Cloud on AWS"
      ],
      "tags": [
        null,
        null,
        null,
        null,
        null,
        null,
        null,
        null,
        null,
        null,
        null,
        null,
        null,
        null,
        null
      ],
      "image": "https://jameskilby.co.uk/wp-content/uploads/2026/03/ai-stack-featured.png",
      "excerpt": "![Self-hosted AI stack operations architecture — Ansible automation, Uptime Kuma monitoring, Open WebUI backup, and container orchestration with Docker and Traefik](https://jameskilby.co.uk/wp-content/uploads/2026/03/ai-stack-featured.png)\n\n[Artificial Intelligence](https://jameskilby.co.uk/category..."
    },
    {
      "slug": "my-self-hosted-ai-stack-a-technical-deep-dive",
      "title": "My Self-Hosted AI Stack: Architecture Overview (Part 1)",
      "description": "Build a fully private AI stack on your own hardware with Ollama, Open WebUI, n8n, ComfyUI, Qdrant & SearxNG on Docker Compose. Full technical deep dive with ...",
      "date": "2026-03-27T11:56:33Z",
      "modified": "2026-04-16T21:48:23Z",
      "author": "James Kilby",
      "url": "https://jameskilby.co.uk/2026/03/my-self-hosted-ai-stack-a-technical-deep-dive/",
      "markdown_url": "/markdown/posts/my-self-hosted-ai-stack-a-technical-deep-dive.md",
      "api_url": "/api/posts/my-self-hosted-ai-stack-a-technical-deep-dive.json",
      "categories": [
        "Artificial Intelligence",
        "Automation",
        "Docker",
        "Homelab",
        "NVIDIA",
        "Traefik",
        "VMware",
        "VCF",
        "AWS",
        "Veeam",
        "VMware Cloud on AWS"
      ],
      "tags": [
        null,
        null,
        null,
        null,
        null,
        null,
        null,
        null,
        null,
        null,
        null,
        null,
        null
      ],
      "image": "https://jameskilby.co.uk/wp-content/uploads/2026/03/ai-stack-featured.png",
      "excerpt": "![Self-hosted AI stack operations architecture — Ansible automation, Uptime Kuma monitoring, Open WebUI backup, and container orchestration with Docker and Traefik](https://jameskilby.co.uk/wp-content/uploads/2026/03/ai-stack-featured.png)\n\n[Artificial Intelligence](https://jameskilby.co.uk/category..."
    },
    {
      "slug": "my-home-office-setup-upgrades",
      "title": "My Home Office Setup & Upgrades",
      "description": "Given the year that was 2020 and at the time of writing a distinct improvement appears a long way off I decided it was time to up my homeworking game.",
      "date": "2021-01-05T12:17:13Z",
      "modified": "2026-04-16T22:01:58Z",
      "author": "James Kilby",
      "url": "https://jameskilby.co.uk/2021/01/my-home-office-setup-upgrades/",
      "markdown_url": "/markdown/posts/my-home-office-setup-upgrades.md",
      "api_url": "/api/posts/my-home-office-setup-upgrades.json",
      "categories": [
        "Personal",
        "Consulting",
        "Hosting",
        "Nutanix",
        "VMware",
        "Cloudflare",
        "Wordpress"
      ],
      "tags": [
        null,
        null,
        null
      ],
      "image": "https://jameskilby.co.uk/wp-content/uploads/2023/05/IMG_7017-scaled-1-1024x768.jpeg",
      "excerpt": "![Img 7017 Scaled 1](https://jameskilby.co.uk/wp-content/uploads/2023/05/IMG_7017-scaled-1.jpeg)\n\n[Personal](https://jameskilby.co.uk/category/personal/) | [Consulting](https://jameskilby.co.uk/category/consulting/)\n\n# My Home Office Setup & Upgrades\n\nBy[James](https://jameskilby.co.uk)January 5, 20..."
    },
    {
      "slug": "my-first-pull",
      "title": "My First GitHub Pull Request: Contributing to Open Source",
      "description": "I was initially going to add in the contents of this post to one that I have been writing about my exploits with HashiCorp Packer but I decided it probably",
      "date": "2020-12-22T16:38:11Z",
      "modified": "2026-04-16T22:01:58Z",
      "author": "James Kilby",
      "url": "https://jameskilby.co.uk/2020/12/my-first-pull/",
      "markdown_url": "/markdown/posts/my-first-pull.md",
      "api_url": "/api/posts/my-first-pull.json",
      "categories": [
        "Devops",
        "Personal",
        "VMware",
        "vSphere",
        "Cloudflare",
        "Github",
        "Wordpress",
        "Nutanix",
        "Hosting"
      ],
      "tags": [
        null,
        null,
        null
      ],
      "image": "https://jameskilby.co.uk/wp-content/uploads/2020/12/175jvBleoQfAZJc3sgTSPQA.jpg",
      "excerpt": "![175Jvbleoqfazjc3Sgtspqa](https://jameskilby.co.uk/wp-content/uploads/2020/12/175jvBleoQfAZJc3sgTSPQA.jpg)\n\n[Devops](https://jameskilby.co.uk/category/devops/) | [Personal](https://jameskilby.co.uk/category/personal/)\n\n# My First GitHub Pull Request: Contributing to Open Source\n\nBy[James](https://j..."
    },
    {
      "slug": "multihost-holodeck-vcf",
      "title": "VMware Holodeck Multi-Host VCF: Lab Setup & Configuration",
      "description": "MultiHost Holodeck VCF offers insights on deploying VMware Holodeck across multiple hosts. Learn more about the setup and specifications today!",
      "date": "2024-01-17T17:29:38Z",
      "modified": "2026-04-11T09:00:47Z",
      "author": "James Kilby",
      "url": "https://jameskilby.co.uk/2024/01/multihost-holodeck-vcf/",
      "markdown_url": "/markdown/posts/multihost-holodeck-vcf.md",
      "api_url": "/api/posts/multihost-holodeck-vcf.json",
      "categories": [
        "VMware",
        "VCF",
        "Homelab",
        "Networking",
        "Storage",
        "Artificial Intelligence",
        "Automation",
        "Docker",
        "NVIDIA",
        "Traefik",
        "Nutanix",
        "Ansible",
        "Containers",
        "Devops",
        "Personal",
        "vSphere",
        "Veeam"
      ],
      "tags": [
        null,
        null,
        null,
        null
      ],
      "image": "https://jameskilby.co.uk/wp-content/uploads/2023/12/Holodeck-Overview.png",
      "excerpt": "![Holodeck Overview](https://jameskilby.co.uk/wp-content/uploads/2023/12/Holodeck-Overview.png)\n\n[VMware](https://jameskilby.co.uk/category/vmware/) | [VCF](https://jameskilby.co.uk/category/vmware/vcf/)\n\n# VMware Holodeck Multi-Host VCF: Lab Setup & Configuration\n\nBy[James](https://jameskilby.co.uk..."
    },
    {
      "slug": "monitoring-vmc-part-1",
      "title": "Monitoring VMware Cloud on AWS: Tools & Approaches (Part 1)",
      "description": "As previously mentioned I have been working a lot with VMware Cloud on AWS and one of the questions that often crops up is around an approach to monitoring",
      "date": "2019-12-17T23:01:27Z",
      "modified": "2026-04-16T22:02:01Z",
      "author": "James Kilby",
      "url": "https://jameskilby.co.uk/2019/12/monitoring-vmc-part-1/",
      "markdown_url": "/markdown/posts/monitoring-vmc-part-1.md",
      "api_url": "/api/posts/monitoring-vmc-part-1.json",
      "categories": [
        "VMware",
        "AWS",
        "Veeam",
        "Hosting",
        "Homelab",
        "Networking",
        "Storage",
        "Personal",
        "vSphere",
        "VCF",
        "vSAN"
      ],
      "tags": [
        null,
        null,
        null
      ],
      "image": "https://jameskilby.co.uk/wp-content/uploads/2026/03/VMConAWS.png.webp",
      "excerpt": "![Vmconaws.Png](https://jameskilby.co.uk/wp-content/uploads/2026/03/VMConAWS.png.webp)\n\n[VMware](https://jameskilby.co.uk/category/vmware/) | [AWS](https://jameskilby.co.uk/category/aws/) | [Veeam](https://jameskilby.co.uk/category/veeam/)\n\n# Monitoring VMware Cloud on AWS: Tools & Approaches (Part ..."
    },
    {
      "slug": "money-saving-uk-version",
      "title": "UK Money Saving Tips: Banking, Rewards & Travel Cards",
      "description": "I recently got back from an amazing conference in New Orleans. This was the VeeamON conference and I was invited as part of the Veeam Vanguard program that I...",
      "date": "2017-05-29T11:49:16Z",
      "modified": "2026-04-16T22:02:05Z",
      "author": "James Kilby",
      "url": "https://jameskilby.co.uk/2017/05/money-saving-uk-version/",
      "markdown_url": "/markdown/posts/money-saving-uk-version.md",
      "api_url": "/api/posts/money-saving-uk-version.json",
      "categories": [
        "Money"
      ],
      "image": "https://jameskilby.co.uk/wp-content/uploads/2025/12/ChatGPT-Image-Dec-17-2025-at-09_03_10-PM.png",
      "excerpt": "[Money](https://jameskilby.co.uk/category/money/)\n\n# UK Money Saving Tips: Banking, Rewards & Travel Cards\n\nBy[James](https://jameskilby.co.uk)May 29, 2017April 16, 2026 • 📖4 min read(779 words)\n\n📅 **Published:** May 29, 2017• **Updated:** April 16, 2026\n\nI recently got back from an amazing conferen..."
    },
    {
      "slug": "managing-my-homelab-with-semaphoreui",
      "title": "Managing my Homelab with SemaphoreUI",
      "description": "Learn to manage your homelab using SemaphoreUI with Docker. Follow our guide to streamline your DevOps tools like Ansible and Terraform today!",
      "date": "2025-09-02T16:01:48Z",
      "modified": "2026-03-10T20:35:11Z",
      "author": "James Kilby",
      "url": "https://jameskilby.co.uk/2025/09/managing-my-homelab-with-semaphoreui/",
      "markdown_url": "/markdown/posts/managing-my-homelab-with-semaphoreui.md",
      "api_url": "/api/posts/managing-my-homelab-with-semaphoreui.json",
      "categories": [
        "Ansible",
        "Homelab",
        "VMware",
        "vSphere",
        "Nutanix",
        "TrueNAS Scale",
        "vSAN",
        "Storage",
        "Automation",
        "Docker",
        "Hosting",
        "Kubernetes"
      ],
      "tags": [
        null,
        null,
        null,
        null
      ],
      "image": "https://jameskilby.co.uk/wp-content/uploads/2025/07/semaphore.png",
      "excerpt": "![Semaphore](https://jameskilby.co.uk/wp-content/uploads/2025/07/semaphore.png)\n\n[Ansible](https://jameskilby.co.uk/category/ansible/) | [Homelab](https://jameskilby.co.uk/category/homelab/)\n\n# Managing my Homelab with SemaphoreUI\n\nBy[James](https://jameskilby.co.uk)September 2, 2025March 10, 2026 •..."
    }
  ],
  "page": 4,
  "per_page": 10,
  "total": 74,
  "total_pages": 8
}